19918
17605
17770
17914
17922
18049
18063
18159
18113
18133
18133
18258
18358
18379
18320
18389
18544
18569
18596
18783
18891
18863
18783
18770
18825
18923
18990
18977
19170
19191
19370
19220
19205
19285
19293
19275
19428
19418
19592
19721
19696
19682
19845
20011
20155
20347
20316
20211
20117
20247
20394
20201
20446
20548
20543
20707
20777
20864
20945
20981
20740
20920
21037
21460
21527
21230
21308
21259
21337
21480
21558
21647
21725
22013
22153
22155
21993
22128
22340
22314
22528
22639
22622
22647
22632
22566
22796
22896
23184
22960
22972
23040
23039
23024
23224
23522
23452
23339
23456
23470
