4
14
13
29
36
50
59
68
76
85
96
108
121
131
141
151
161
171
182
192
204
216
228
240
250
260
272
283
294
305
316
326
337
348
359
370
383
396
409
420
433
445
460
473
484
497
512
524
537
550
564
581
596
610
626
641
659
673
688
702
718
735
753
770
799
821
842
860
880
897
918
937
954
974
990
1012
1032
1050
1070
1091
1109
1127
1147
1167
1184
1205
1222
1239
1259
1278
1297
1315
1332
1352
1368
1388
1405
1423
1441
1458
