19
43
43
57
57
62
62
64
70
74
75
75
75
76
77
77
78
80
82
84
86
87
88
88
89
89
90
90
91
92
92
93
94
95
97
98
99
100
101
102
104
105
106
107
108
109
110
112
113
115
115
116
117
118
120
121
122
122
124
125
125
126
126
127
128
129
130
130
131
132
132
133
133
134
136
136
136
137
138
138
139
139
140
140
141
142
144
144
145
145
146
147
148
150
150
151
152
153
159
185
