35
33
26
59
59
70
77
91
101
114
117
125
140
149
161
168
173
181
190
203
206
217
219
222
235
251
253
263
268
278
287
296
298
308
312
322
330
341
351
358
368
377
379
391
411
415
427
440
454
460
466
483
488
512
522
542
562
580
671
598
600
618
625
656
651
658
668
680
689
699
714
722
723
740
756
763
785
791
807
817
836
842
849
872
879
884
888
890
907
913
939
943
992
1033
1020
1036
1043
1045
1066
1075
1094
1113
1111
1123
1134
1142
1158
1155
1185
1213
1211
1246
1284
1229
1233
1261
1273
1291
1307
1332
1334
1381
1373
1375
1390
1393
1395
1428
1430
1445
1471
1468
1490
1533
1542
1535
1542
1609
1570
1562
1589
1660
1623
1686
1681
1710
1727
1763
1768
1779
1807
1807
1801
1853
1890
1813
2011
1551
1579
1594
1609
1592
1551
1553
1561
1569
1590
1591
1633
1676
1683
1668
1698
1744
1756
1797
1822
1810
1729
1825
1855
1848
1906
1896
1869
1887
1886
1899
1921
1962
1962
2004
2028
2039
2110
1970
2035
2045
2056
2052
2071
2090
2096
2111
2123
2131
2192
2165
2169
2185
2199
2212
2222
2229
2252
2268
2301
2329
2319
2355
2370
2377
2384
2486
2422
2430
2446
2454
2579
2507
2542
2531
2522
2538
2545
2561
2594
2589
2610
2638
2660
2668
2677
2725
2738
2765
2734
2814
2829
2826
2838
2829
2866
3200
2797
2823
2833
2834
2850
2867
2887
2921
2934
2943
2957
2976
3001
3044
3095
3011
3041
3028
3057
3078
3063
3118
3206
3148
3151
3162
3176
3306
3259
3271
3408
3265
3319
3306
3455
3457
3442
3455
3466
3520
3530
3523
3642
3519
3473
3486
3512
3521
3581
3577
3607
3630
3654
3686
3725
3723
3946
3923
3955
4004
4014
3996
4051
4106
4137
4214
4180
4025
4085
4052
4030
4123
4341
4392
4408
4297
4191
4191
4241
4258
4358
4431
4384
4666
4469
4516
4570
4590
4576
4640
4716
4755
4794
4826
4870
4851
4850
4914
5065
4970
4988
4968
5063
5062
5228
5219
5090
5097
5161
5136
5177
5208
5225
5223
5266
5474
5506
5501
5606
5413
5370
5304
5256
5401
5435
5359
5387
5422
5433
5414
5466
5582
5626
5630
5606
5502
5573
5555
5587
5730
5813
5642
5601
5672
5767
5743
5812
5808
5739
5738
5909
5905
5848
6115
5861
5942
6020
6262
6125
6282
6372
6186
6081
6127
6206
6270
6272
6284
6397
6434
6449
6615
6399
6439
6380
6530
6540
6422
6457
6498
6547
6593
6639
6642
6678
6876
6680
6737
6887
6915
6962
6861
6925
6941
6970
6991
7127
7178
7161
7214
7377
7149
7167
7147
7169
7356
7571
7294
7430
7270
7328
7503
7471
7473
7422
7474
7535
7897
7808
8002
7880
7922
7995
8182
8116
8253
7829
7842
7956
7887
7784
7782
7834
7797
7834
7840
7890
8106
7938
7981
7967
7995
7993
8105
8061
8148
8161
8130
8200
8221
8255
8495
8381
8273
8326
8371
8431
8561
8452
8463
8521
8534
8534
8539
8646
8674
8763
8654
8663
8747
8866
8935
8950
9297
9257
8963
8875
8901
8936
8921
8940
9017
9106
9115
9161
9305
9186
9263
9253
9294
9310
9362
9375
9391
9388
9414
9398
9395
9424
9612
9468
9499
9612
9630
9669
9714
9764
9819
9775
9820
9822
9877
9898
9979
10131
10037
10174
10081
10054
10271
10199
10060
10098
10117
10241
10183
10238
10361
10293
10293
10545
10533
10408
10477
10829
10678
10890
10704
10849
10774
10690
10764
10848
10895
10913
11055
10907
10878
10995
11079
11045
11082
11114
11044
11099
11162
11131
11080
11192
11351
11461
11219
11259
11231
11218
11367
11312
11495
11463
11378
11602
11549
11623
11627
11649
11556
11551
11484
11636
11802
11636
11635
11682
11705
12034
12099
11864
11673
11776
11885
11805
11976
11781
11765
11862
11903
11830
11863
12014
12029
12064
12205
12067
12036
12010
12047
12047
12051
12091
12114
12227
12204
12386
12385
12234
12298
12294
12374
12581
12594
12483
12479
12543
12789
12717
12666
12736
12795
12831
12872
12835
12718
12782
12883
12912
12962
12922
12878
12967
13036
13036
13171
13000
13000
12980
13084
13054
13042
13120
13064
13086
13153
13245
13238
13183
13236
13330
13245
13333
13340
13368
13383
13423
13468
13540
13659
13614
13643
13736
13698
13933
13769
13755
13810
13916
13813
14011
14225
13941
13996
14037
13999
13837
14005
14025
14140
13941
13991
14069
14047
14045
14105
14135
14414
14864
14235
14296
14248
14249
14291
14305
14339
14295
14502
14348
14378
14527
14492
14531
14487
14513
14518
14776
14807
14831
14852
15112
14882
15131
15196
15017
14830
14876
14979
14933
15004
14998
15062
15209
15123
15166
15229
15437
15308
15515
15309
15319
15610
15401
15429
15498
15493
15524
15557
15649
15647
15661
15751
15810
15766
15778
15863
15878
16070
15939
16065
16010
16052
16143
16089
16140
16519
16201
16235
16272
16311
16335
16486
16520
16559
16591
16628
16619
16647
16713
16794
16833
16986
16839
16819
16817
17646
17256
17236
17324
17472
17407
17445
17545
17592
17111
17214
17129
17133
17143
17215
17419
17305
17421
17513
17308
17377
17358
17432
17458
17449
17509
17537
17647
17674
17690
17626
17677
17730
17827
17820
17815
17946
18100
17878
18208
17907
17975
18019
18019
18140
18339
18090
18222
18249
18529
18775
18475
18416
18531
18472
18481
18515
18680
18582
18569
18754
18844
19351
19192
18620
18703
18921
18783
18788
18663
18743
18809
18864
18752
18823
18943
19208
19050
19069
19271
19374
19139
19090
19249
19234
19300
19399
19337
19387
19296
19920
19402
19444
19647
19499
19678
19486
19486
19437
19491
19831
19705
19725
19794
19808
20109
19791
19860
19725
19812
19963
20172
20051
20055
20001
19942
20028
19975
19965
19894
19905
19948
19967
19982
20038
20206
20153
20326
20356
21301
20539
20182
20219
20201
20239
20435
20479
20502
20571
20803
20396
20443
20498
20789
20894
20768
20607
20829
21068
20802
20762
20751
20783
20779
21216
20897
20916
21434
21190
20974
21083
21056
21070
21484
21383
21179
21434
21296
21291
21278
21282
21315
21380
21404
21432
21458
21439
21654
21618
21475
21410
21479
21487
21547
21547
21655
21636
21710
21719
21797
21789
21801
21820
21864
21942
21977
22022
22014
22052
22103
22130
22174
22305
22213
22218
22519
22882
22887
22930
22955
22989
23005
23138
23079
23169
23332
23079
22984
23331
23136
23306
23332
23458
23675
23694
23451
23485
23704
23866
23675
23396
24411
24439
24264
24040
23732
23877
23716
25469
27200
24793
24115
23988
23576
23561
23640
23633
23654
23708
23754
23758
23939
23809
23998
24519
24082
24405
24700
24562
24436
24176
24169
24222
24546
24625
24617
24306
24541
24478
24376
25044
25228
24935
24653
24898
24572
24620
24765
24676
24726
24758
24760
24863
24885
24862
24905
24904
25026
24973
24987
25051
25457
25268
25188
25804
25287
25368
25270
25354
25363
25510
26089
25737
25745
25485
25523
25564
25607
25608
25809
26231
26115
26077
26047
26194
26362
26553
26517
26619
26646
26360
26434
26689
27030
26978
26546
26807
26676
26914
26759
26839
26730
26738
26773
27247
27187
27319
27315
27158
27072
27129
27110
28019
30227
36743
34075
29503
28004
27739
27719
29966
28052
27751
28292
27987
29241
28386
28400
27516
27383
27384
27332
27913
27578
27497
27678
27546
27670
27682
27654
27714
27722
28049
27937
27933
28077
28601
28917
28500
28815
28743
28341
28206
28148
28265
29069
28656
28428
28563
28339
28291
28320
29090
28657
28469
28495
28461
28651
28908
29046
29216
29091
29828
33019
31432
30098
31510
30365
29263
29546
29064
29355
29053
29220
29249
28903
28955
29010
29449
29163
29136
29144
29398
29294
29454
29366
29374
29408
29571
30029
30379
30689
32170
33255
32665
33328
36623
34529
31434
30177
29919
30086
31801
32876
31680
30855
31789
32953
32633
32839
34925
35871
32117
30870
30424
30506
31117
30973
30888
30688
30513
30932
30968
30786
31216
31106
30729
30717
30752
30970
30807
30848
30990
31121
30885
31041
31066
31041
31044
31022
31100
31293
31214
31254
31321
31840
31773
32426
32074
31637
31717
31827
31714
32030
31798
31816
31847
31959
31975
32011
32245
32137
32173
32107
32126
32487
33217
32345
32411
32407
32491
32571
32783
32426
32987
32500
32606
32825
32683
32688
32793
33068
32939
33013
32886
32902
32857
32958
33057
33065
33056
33106
33193
33340
33189
33805
33335
33246
32993
33042
33402
33257
33218
33686
33402
33300
33638
33803
33835
33513
33519
33794
33828
34106
33613
33938
33931
33722
33691
33828
33900
33916
33980
34034
34110
33892
34169
34119
34177
34422
34901
34618
34809
34047
34046
34115
36359
41684
36335
35133
34421
34616
35645
38120
37814
36888
35509
35348
35461
35174
35644
35926
35324
35247
35302
35381
35321
35111
35095
35052
35162
35752
36464
36399
36505
36077
35357
35211
35253
35204
35293
35256
35772
35653
35722
35531
35342
35615
35435
35583
35468
35588
35636
36306
35819
36022
36271
36534
36187
35771
35797
36107
36219
36437
36376
35995
36085
36671
36242
36390
36656
36980
36979
37000
37196
37417
37080
37124
37124
36951
37297
37814
37140
37234
37037
37422
37395
37270
37413
37662
36981
36965
37023
36922
36988
36919
37108
37752
38404
37917
37469
37665
38596
40374
40045
39714
38707
38396
38542
39172
38300
37706
37820
37838
37797
38076
37825
38045
38102
38836
38478
38535
39374
38271
38589
38700
38423
38304
38432
38595
38720
38307
38433
38491
38307
38617
38871
38474
38639
38451
38640
39210
38959
38929
39043
39104
39110
39562
39674
39938
39927
39829
38996
38916
39355
38972
39013
39011
39097
39399
39291
39318
39432
39667
40109
39887
39347
39566
39403
39526
39731
39645
39731
39971
39714
40020
40077
39840
40211
39785
39964
40074
40403
42956
47308
44556
43287
42373
41413
40718
40631
41025
40709
40683
40724
43457
52162
41296
40452
40527
40146
40472
40367
40175
40622
40332
40392
40305
40305
40347
40452
40393
40471
40724
40534
40671
40601
40880
42013
42233
48328
51352
53963
44542
45819
42876
42605
41957
42659
42506
42151
42242
42085
42162
42258
42128
42310
42211
42134
42750
42348
42317
42318
42771
42434
42362
42397
42294
42943
42840
42811
42855
43214
43269
43327
43390
43282
43257
43036
43000
43158
43040
43221
44369
43066
42941
44290
42860
42386
42758
42617
42891
42526
42571
42696
42977
43020
42763
43018
43030
42991
43296
42914
43105
43707
43661
43569
45600
44369
47177
47292
43878
43276
43247
43564
44491
44397
44260
43729
43606
44188
44518
44039
43733
43589
43522
43420
43670
43373
43363
43793
43925
44608
43652
43572
43579
43609
44105
43434
43421
43590
43531
43844
43632
43580
43595
43693
43669
43687
44224
44174
43837
43846
43796
43845
44096
44064
44157
44399
44049
44183
45480
44529
44225
45345
44695
44297
44320
44312
44422
44594
44338
44418
44449
44460
44708
44509
44793
44914
45305
45029
44746
44725
44774
45079
44832
45092
45517
45079
44918
44963
44996
45085
45071
45094
45153
45226
45661
45232
45207
45358
45893
46246
45781
45394
45431
45530
45720
45500
45776
45794
45594
45720
45749
46004
45782
46007
45766
46061
46165
45931
46182
46068
47709
46862
46135
46136
46161
46218
46182
46507
46410
46293
46322
46304
46386
46655
46762
48101
51706
49137
47262
46725
46594
46754
47664
47172
47975
48069
47250
47232
47268
47150
47266
47333
47733
48174
47767
47530
47806
47950
47726
48034
48296
47798
47224
47290
47317
47877
47375
47516
48030
50448
48946
48445
48417
48285
48987
48331
48065
48324
47833
47817
47816
47950
47845
47966
47953
48141
49549
49535
48067
48078
48110
48220
48213
48839
48607
48580
48308
48383
48425
48660
48949
48524
48573
48516
48555
48630
48634
48719
48954
48869
49687
49357
48844
48850
49343
49441
49195
48934
49243
49606
49464
50318
50309
50670
50747
49906
49662
49274
49260
49294
49378
49743
49540
49685
50352
49626
49543
49565
49637
49697
50312
50156
50259
50279
50479
50149
50616
49937
49877
49934
49951
49967
50050
50023
50227
51691
50468
50276
50244
50222
50502
50976
51613
52400
52006
52007
51847
52109
57051
57807
51622
51450
51047
51315
51710
51660
51328
51676
51481
51402
51705
51084
51039
51053
51102
51424
51338
51950
52089
53805
54650
58760
56675
54648
54301
52777
52278
52016
51978
51926
52421
51582
51562
51533
51948
52152
52632
52551
52757
52230
51857
52784
56007
52707
52087
52138
52806
53751
54030
54294
53906
54428
54004
55183
53189
52276
52265
52318
52380
52361
52437
52839
52506
52411
52482
52505
52723
52751
52657
52862
54373
54299
53193
53036
53158
53271
53267
53145
53590
54326
53667
53538
54012
53741
53560
53334
53291
53365
53381
53689
53705
53766
53753
53780
53848
53865
53944
53915
54161
54039
53927
53974
53922
54251
54443
53885
54107
54186
54376
58543
73706
73022
56208
54785
55216
55037
55103
55026
55255
55082
55175
55047
55017
55435
55360
55830
56200
56422
55656
57456
55920
55438
55811
55621
55625
55847
55905
55920
55870
56288
55943
55778
55799
56362
55903
55919
55919
56397
56556
56132
56204
56937
61089
61546
58806
62663
64777
57441
56981
56763
57343
56706
56707
57467
57210
58794
59262
61136
60919
60887
61454
61525
62296
64147
75008
75366
63419
58299
59179
58333
57800
57798
59531
59290
58174
57744
57884
57673
57917
57633
59032
59527
60602
58970
58439
58452
58539
58607
58466
60357
59051
58692
59412
59067
58985
60096
60283
60014
61553
59816
59230
59316
59082
59457
59371
59353
59503
59288
59882
60279
59781
59944
59787
60763
60147
59937
60007
60040
60008
61072
61156
60445
60232
61535
60375
60269
60130
60160
60109
60192
60506
60018
59882
60101
60330
60524
60941
60763
60516
60822
60049
59301
59017
59126
59113
59377
59098
65208
65882
61028
60466
59316
59159
61978
63070
60289
59493
59306
59261
59250
59404
59593
59385
60142
59974
59472
59482
59887
59947
59597
59685
60063
59676
59807
59909
60242
60447
60291
60120
59910
59902
60270
59965
60264
60053
60173
60216
60230
61922
61200
61369
60650
60379
60742
60358
60347
60777
60516
62113
62539
60609
60568
61100
61261
60916
61010
60933
61898
62132
61794
61913
62222
61994
62888
61977
61767
61345
61202
61091
61346
61444
61658
61229
61454
61587
62052
61609
61588
62138
62590
61808
61812
61631
61686
61739
61894
61930
61608
62209
61754
61746
62487
61919
61864
62072
63160
62410
62343
62068
62357
64235
65119
65771
69194
74648
63663
62912
62973
62749
62735
62895
63566
62890
64247
64828
66132
68286
74891
69725
64049
64338
63512
63554
63783
63272
63215
63264
63631
63254
66074
64827
63755
63759
64114
63803
63444
63697
63630
63471
63491
63374
64635
64039
64897
63746
63756
66983
64829
64102
65353
65836
66168
65726
65813
65745
66035
65584
65192
66246
64442
65945
73835
72081
68161
68064
67493
68738
66962
65012
64899
66217
65826
66475
65913
64708
65014
64985
64919
66162
65348
65363
65552
65616
65942
65729
65221
65195
65387
65343
65678
67930
67296
65522
65332
65647
67134
67598
67054
66920
67548
67074
68113
66889
65364
65488
65360
65386
65520
65696
66006
68171
66594
65834
66743
67531
66057
65519
65440
66486
65569
65849
66010
65411
67242
67459
65767
75250
81307
75420
71013
71518
74266
66992
66251
66972
70771
71148
69577
67863
69219
68204
67388
68913
69471
68912
77836
76600
80047
76484
71277
68888
69298
76030
77959
85875
87331
78923
74008
70402
70468
74251
78134
69855
68511
67607
67731
68238
68035
67597
68795
67892
68238
69172
68021
68136
68299
68299
67914
68247
69577
70928
73065
73595
88118
77448
77420
73591
71361
70098
70045
74241
71758
68888
68650
69090
69391
68452
69000
69071
68275
69047
68723
68989
68670
68587
68995
69352
68526
68522
68511
68461
69343
69220
68519
68492
68786
68546
69327
68815
68599
68936
68863
68954
70227
69312
70530
70265
69530
70184
70510
69896
69778
69423
69372
70462
70341
69654
69647
69718
69921
70161
69768
69528
69580
69530
69844
70691
69799
69714
69633
69388
70418
70065
69538
69446
69574
71461
75237
71158
71382
70751
69930
71688
70415
71727
71413
75260
72438
72426
74506
71701
71172
71340
74462
72970
72396
72442
71890
71386
71775
74853
71221
70984
70557
70634
70461
70530
70412
70953
72209
71785
73953
71601
71216
71445
72331
71342
74585
74202
72089
73440
73129
73215
71894
71398
71399
71413
72637
71938
71847
74401
81297
80136
89858
73478
72153
72727
72412
72010
72918
72395
72048
74555
72726
73592
72329
72804
72712
72242
72686
72750
72912
74418
75269
73548
74324
73155
73108
72550
72648
72484
72537
73048
75241
75955
74773
75178
74087
75763
73071
73024
72738
73369
73423
74943
73659
73827
74224
73580
73897
74077
74343
74253
74429
76516
75842
75634
81316
99233
81976
74740
74507
74694
74851
75462
76833
75186
75154
74819
74979
75903
75696
76581
75291
75445
78537
76685
76406
79782
85180
78463
75656
75931
86569
88130
88780
83830
80660
82394
83906
86382
83404
80618
87306
85240
87132
80930
77283
76462
74747
74898
75589
77231
80253
80495
78011
77019
78112
78746
75904
76199
75694
77336
79318
83994
86702
85093
79116
79155
85547
79515
76012
76069
75871
75834
76086
76503
78044
81743
81797
80921
79497
78867
79899
77696
77406
78298
76722
79462
76944
76334
76093
76591
77734
77751
77672
77358
78586
80346
76737
76511
76516
76160
76001
75946
76218
75932
76217
80751
78134
76916
76565
77038
77063
77462
77211
76976
76684
80942
78530
77077
76619
77754
78250
81332
77459
77085
78693
80272
78831
78979
77680
76954
77167
77794
76825
76762
77631
78624
78781
77793
78277
78237
80007
83955
81914
78665
81311
83112
81566
78139
78621
77807
83198
84241
79679
81250
80128
80422
78859
81043
81148
90900
83280
81489
88917
82583
80158
80712
79417
78382
79631
79735
80721
80994
79620
79534
79662
81299
79911
79460
79505
79144
81737
81622
78666
78615
79122
87382
93276
108976
114875
99593
93212
94463
89226
86267
85622
85013
82459
81860
86041
110814
103076
83270
82150
83805
84202
84305
83205
90240
90131
83444
82347
87761
85278
82679
82121
83354
83568
84269
81776
83279
82247
82305
83123
82576
82744
86308
85014
86526
84801
82995
82806
83215
83473
84105
86766
84650
84333
83587
85127
83613
83629
82923
83277
85067
85556
85771
84702
85477
87340
94855
84923
83908
84897
88744
84313
88072
92144
84463
83618
84982
84259
84854
86795
84685
84760
84899
85529
84523
88125
88353
84122
87392
86115
83976
84088
85203
84645
84295
84627
85074
89017
88905
85617
90804
102905
117735
90213
85698
85649
85576
88055
87227
86242
86398
87454
86315
94000
93064
89432
90369
88502
87754
87609
89178
87895
87815
93686
91729
93087
102552
97008
92761
89145
88891
88826
90936
90290
90060
90968
90022
90184
90609
92395
90464
92649
101337
98104
91041
87921
87296
86828
86372
87160
89230
90756
93956
91212
93998
90287
88188
88443
89859
88573
87264
88432
87239
87408
86791
87435
86963
88942
88336
88713
92447
87401
87737
88321
88063
90476
93840
89882
89826
87981
87669
88064
88780
93620
94614
98149
91403
96321
90871
89603
89784
88978
89550
90398
98749
100674
94049
90152
90623
89438
89310
89978
89533
90837
92142
90585
101251
98331
96292
99892
97339
92425
96166
90866
90140
89352
89786
92472
91445
91012
92572
95645
91084
91791
91043
90896
90275
90297
92212
98298
93401
90671
90361
90287
90802
92021
91706
93239
95505
98215
101632
101130
93721
92602
91242
91758
95291
93856
91857
90932
91085
93607
133111
99555
95724
92849
93420
93132
101616
101001
100749
94842
93159
93020
92985
94867
99541
95076
94079
95140
93804
96662
97381
93107
96645
95956
94323
94674
96238
111831
115924
116248
119080
118841
102225
102923
102565
97132
92443
94036
92880
93964
93571
93845
95707
94626
93145
92941
93074
93003
94610
93698
94348
96249
99022
96089
94369
94245
95387
94509
93778
94366
95265
99724
96906
98525
95479
94505
94476
94469
94403
102956
97045
94169
95763
95982
97798
95781
95087
97126
97979
99918
95834
95120
95921
102002
108441
118098
123738
146361
111348
127938
106847
105802
105727
106432
109000
106763
116720
104299
103672
118655
126870
101153
97734
97279
96707
97098
97900
98492
99500
101594
102838
99227
106001
104940
103108
106014
106374
103202
103009
100957
102546
104175
101448
100632
107949
141236
124585
105018
104672
102877
106721
105644
103462
103866
129421
118296
128078
120095
113438
112452
107362
106433
110341
101420
101942
108030
102195
100223
101869
102579
105814
102289
101056
101582
106118
105425
102723
102697
104775
102217
105556
103353
101746
105898
121229
113847
104735
103418
104033
122280
110112
103020
103577
99738
100847
99915
101277
99745
99126
98226
98555
98592
98917
100821
117589
131284
101627
99259
98925
99992
100368
105652
102355
102331
104610
104440
103166
117055
124065
118082
107597
101431
101541
103810
101963
103031
105184
102982
101043
103349
100260
100213
100523
104308
103137
103932
102154
104387
103164
106236
100394
101251
101747
102816
100864
100388
100798
100715
100895
100839
101704
103115
100412
101063
101347
101119
100667
100360
101624
104976
103774
101905
101133
101032
101388
102034
105760
103173
102225
105509
103581
101701
103434
104543
102790
103111
102737
102234
101930
102285
102585
103358
110007
104437
102814
103363
106545
104963
103942
103730
104060
104689
103146
102882
102302
103097
106223
107846
103720
103329
103105
103088
102958
103361
102949
102541
102049
104239
102668
102972
108117
105393
103084
104797
104173
103428
103245
104118
104157
109794
106708
104174
103598
110691
104123
105571
103963
103350
103138
103358
104709
104587
103787
103371
103297
104703
105282
104403
106208
105550
105321
103997
103777
104526
108328
104854
106728
104702
106138
104895
104790
104805
104697
105052
105991
105411
104665
104378
104756
104816
104411
105354
105106
105386
104746
104915
105064
105147
106888
110372
105666
105446
105633
105526
105615
104892
106510
106040
105492
105487
105345
105221
105625
108716
107291
106067
105484
105865
106582
106252
109339
105606
107304
105489
105397
106430
107028
109628
107834
107914
107052
107417
106019
106977
109853
107312
107890
108953
106517
106641
106391
111206
107009
107092
107121
109655
107562
106704
111332
107652
107656
107243
110937
122681
118538
113896
117134
130990
117722
110394
110000
109864
116001
113579
118007
119330
117582
112648
113919
114668
108993
111848
113936
112011
110941
116214
116398
114157
118887
115047
108683
114273
138143
115542
110746
118104
148218
113903
110237
114802
110001
115183
127678
123158
115997
113253
113008
113002
114246
115019
115526
113441
120902
115054
113879
114168
112988
110404
110080
116996
112413
111517
109658
111743
110730
111135
113603
110944
111165
110282
113463
115448
117543
112362
110035
110767
112438
115610
116088
117203
111454
110488
111540
111073
112926
113889
112651
110844
110651
111303
111869
112127
115982
123826
118187
112696
111555
113227
111793
113524
111935
111495
111621
111604
111764
111478
113699
111836
112132
111479
117222
120480
120820
122563
126787
123876
129457
120962
112943
112548
121280
124278
119774
117095
123655
124640
121790
120990
113025
112228
112373
113093
114711
113101
114883
114440
114512
117331
115061
113696
113157
116008
115230
114487
113147
112852
113404
112881
115694
115050
114599
115128
114863
113813
113489
115250
114118
114302
114701
114577
115308
116836
125300
120472
137850
144187
127123
127696
120280
121438
117730
117151
119387
121927
120565
118543
118304
121903
120072
124762
120966
120683
132523
135621
131609
128564
132342
127210
127837
134265
142906
136246
144558
142410
163213
136446
133175
133511
132573
130306
132131
128807
125842
132993
132563
126779
125731
142143
123651
117603
117963
118785
118756
117573
117863
119473
118645
120083
119011
130199
121913
122242
123791
118847
121067
117080
140619
152053
121936
132733
123882
122949
120452
121368
124164
128679
123252
122233
121538
120270
118295
118195
117985
121494
123462
121996
131597
123300
123681
120283
119929
119982
120530
120094
122259
120830
117800
117761
132204
130887
152782
146922
120421
120054
122755
120888
127031
133987
137457
129420
124526
126893
121706
119916
120719
123464
123409
127573
128406
123817
136497
133102
121275
123315
135397
139322
124606
120285
125357
124210
121227
123553
120237
119657
122323
126228
122113
123913
121228
120799
120200
119513
127848
129716
135309
122415
122500
125051
140155
140241
130572
124851
122013
120434
122269
126668
125856
121788
125474
121092
119986
121477
121886
121059
119934
121213
120891
120927
121382
122855
124630
122589
122581
122644
132189
123536
121409
123548
127164
133963
123700
121627
121260
123417
125739
131915
125392
125337
123892
122720
122231
132866
131001
133648
138752
146423
136958
129445
127289
122897
121833
125224
124658
124201
123130
121730
126319
158877
128835
128941
126471
124867
124015
124258
125658
126911
124423
136365
132390
127102
129771
151039
150291
125899
128077
125217
125541
125925
125104
125496
125235
125428
127949
129716
129156
134591
128488
127602
125666
125470
125525
133388
134059
138083
137039
131038
133063
127735
127760
127009
127361
125567
137172
133578
130403
125389
128071
126597
125996
124774
124639
129385
130451
126784
125638
135404
126740
124659
124436
125714
128014
125308
126026
130278
128495
125957
128987
142924
131522
127897
126280
125565
126729
127834
132396
127460
126968
126925
128895
143979
131625
127211
127085
126588
126001
127197
128719
132604
131328
135028
129490
131403
131258
127661
127201
127825
127747
142882
161143
135414
170673
133732
178332
141627
134144
145903
137895
131762
141284
136009
131874
133014
131241
131357
135345
134193
135884
135484
134304
140781
142236
144188
144456
164246
167921
172978
154818
156860
163069
131684
134068
134664
135656
138895
134339
132989
132109
133054
134785
135394
138755
148169
152322
159592
151188
142014
142713
135720
141981
137752
140477
135643
135600
143093
150782
139013
133747
130198
131878
132203
135194
131747
135604
132687
133188
132834
131956
131365
133708
132588
132574
136530
132182
132128
134752
133764
133059
132356
132719
132983
134481
133338
137905
137015
136927
136824
139639
136099
133838
136302
142246
136323
135500
134311
135638
133489
132679
134218
135984
138011
141659
144680
137782
135097
137917
138239
146164
143550
137149
135275
142807
140138
148220
138747
138381
140607
138983
136480
138326
141063
146673
136847
141747
144392
137687
136112
135076
139381
139722
152175
151352
144458
138041
138117
151529
149469
144266
141315
145585
144685
139318
136948
136549
137362
142238
143755
143078
138102
138784
141765
150977
152424
162606
163602
176160
198771
223541
154448
154073
147876
155925
153693
160777
207788
163002
152235
153622
154235
148257
156249
149205
151487
217899
153953
156011
157933
150811
150500
171275
154597
153995
156820
154650
150927
179743
186201
151547
149583
153569
149552
155349
151503
154293
152324
150601
155284
153091
151449
153958
157479
157419
155225
151825
150363
179724
186710
152891
147981
149087
157353
156750
152200
153842
152211
152118
159432
159952
155573
152275
155344
156210
155230
152889
170261
152138
149997
147082
144061
144053
151893
154613
147093
148628
143317
141722
141145
141143
145766
148801
141838
141902
142823
142282
144841
144396
143325
143216
142457
143102
148000
144413
143498
142286
150389
147720
143021
143616
143339
144132
147660
148570
143688
151429
160524
150257
144814
142241
143845
144138
143252
148154
154573
153488
158911
161571
151544
147316
156398
158106
150375
147065
149780
152335
160209
148750
145294
148915
144020
147058
154077
157902
161339
165179
157211
156541
157306
163074
162049
145797
149360
176550
173427
157201
150834
150246
159736
148266
147007
145524
147943
150294
145421
144220
146171
147811
152299
147871
146515
168304
168425
152567
155702
163695
150174
144651
152254
153213
152177
150277
147290
149747
147981
148342
148866
151012
158782
147836
146599
146712
154866
149703
146959
159406
156967
161489
160312
158732
152512
153384
153270
159475
150716
151858
160397
165037
153579
162011
198362
155074
162979
156497
157810
156833
150764
148528
159487
154119
163709
169931
154282
149712
155078
148314
151515
148465
148510
155001
151488
150898
149074
148915
150048
158793
198937
161120
159109
164600
158402
159622
150808
150804
151278
171597
185116
158754
154251
163194
166752
156779
154906
154102
162631
164992
158680
163244
154037
152120
163184
186336
164272
168664
159396
160865
176683
153701
155049
172086
175751
164124
162499
153330
153773
171846
169118
163078
200345
179246
196022
182292
198545
189512
200072
164818
163623
180757
156183
166461
163248
162371
161853
160321
163763
160370
159864
160771
160932
163204
182608
205765
162436
160983
160831
166696
169034
164155
168114
163928
166730
170483
165512
170402
173346
177559
172149
177924
169626
165147
175382
170854
170565
157522
159820
162404
165044
175917
160245
167458
175951
177380
172253
166968
164298
158449
160374
158077
158390
162239
162490
160669
171161
194941
166509
167968
169355
170168
160161
159883
160948
161087
159872
159592
159691
160596
161884
161784
159103
173019
171698
161625
168497
169793
165140
171005
161292
163222
174399
173201
183322
173106
164104
163071
165544
159859
170699
175064
170444
162553
161542
170280
181669
166750
163647
163589
163163
171761
163301
169445
164644
162167
163014
161712
164875
162551
163509
164984
162309
163505
165900
178612
177938
165036
163212
163086
169875
168749
170320
167774
172224
168298
163800
174174
171885
168315
176951
174053
170756
164976
169572
166255
167111
175918
170353
169593
165342
165774
165370
165236
169374
164792
164955
170778
179036
183366
179310
167288
168386
164868
169349
165127
166579
171074
175046
168594
166004
174752
171323
179680
169246
167548
168283
167443
170572
167724
167177
166354
166426
181120
175235
166775
166833
165303
167936
171691
167415
167084
165016
166034
172424
202555
178760
171291
174293
176050
171721
172694
168677
167436
171496
168567
167230
167937
169073
173261
179630
169146
167700
168542
174116
172473
184603
196115
208003
172842
172968
173611
176189
173364
183895
176391
176029
176410
192108
194878
190620
179189
178502
175911
200556
179106
175307
174235
179346
171667
174747
180428
170909
171464
169522
169830
189757
189731
180091
175380
176899
192646
196250
169464
171585
170777
176513
173277
171373
168233
170325
167188
166603
172281
171821
190043
173575
169782
172554
169743
170268
173493
171393
171121
171423
178998
179780
177476
182403
171300
183988
176952
175846
169845
171039
175530
174939
171062
170861
175503
172418
172696
195228
190446
184754
182056
175442
179088
180246
175211
175693
174609
174140
175983
184000
178160
175979
181861
184085
177766
176238
175464
187033
196258
188127
181402
180593
190018
177925
176317
173706
176698
173936
174340
183090
203950
197427
187788
195145
195773
189711
176360
174548
183935
174852
174860
185785
177451
176491
181462
177947
178562
188852
192983
180991
175336
181707
190097
174622
192402
188399
188463
184800
177748
180046
182712
187102
176437
178547
178476
179519
179547
175234
194119
205544
205337
224530
229978
193633
218584
197222
194269
195626
186577
190648
195411
191845
192018
192737
192420
197552
231510
187875
189497
187329
203493
201404
191818
190639
190858
195062
198528
200659
202157
194640
199808
202777
178403
178869
178468
184407
178252
182483
182298
189361
185521
186815
182974
179533
178451
186096
186946
192375
194461
183585
180273
179802
178592
182215
191287
200645
240882
271588
191664
194385
206261
226631
189053
199277
198741
206786
236761
222664
208772
215938
200917
193650
195345
195706
191134
193508
197492
210708
196006
189678
190598
186721
184830
197068
190028
189970
187019
193758
190534
187750
196858
190717
191233
208368
191539
185883
192979
191468
198455
193599
188218
186730
187807
185320
193176
194073
192289
188067
185970
186226
187237
185245
196638
203165
205513
190935
195911
199815
188114
186499
187912
188076
208723
201103
189073
186647
186905
186012
186871
187073
189099
196099
185828
221676
199118
193139
189828
190934
192124
190137
202529
202742
187399
193583
190194
185739
186154
197805
197501
206452
215044
212094
212161
206928
204006
245245
197806
200767
196180
205171
208902
204381
216472
208086
207360
211607
210402
205323
207857
213914
197772
189748
187608
193510
196039
201458
201621
226703
218483
190836
194975
190703
188140
194933
196173
188769
187719
198555
190690
187089
195895
233045
236539
216764
221410
210616
211298
211559
213751
208924
214726
206967
190699
203772
199688
190858
194702
197539
190506
191758
198952
194446
198993
205094
197306
195909
195701
194226
190710
192232
200039
202690
218807
209138
195468
192760
203432
197734
197643
192592
200486
192898
194813
211827
212506
196082
195808
201696
193334
198715
205385
212480
210772
245165
200962
198424
199495
205623
207260
205782
208490
209314
212389
205738
210620
205006
205668
220976
199736
195137
198027
217397
203687
199445
203513
207926
195035
197936
200410
200043
198960
193464
196229
202264
217154
204911
207829
219390
199217
204493
195019
205224
204849
202094
203636
199852
205589
196081
206468
228956
217790
200030
225729
220634
210812
220609
224897
204679
202201
206160
237960
205274
206290
206236
201879
205151
200653
202332
213162
220541
221687
206205
201947
200992
199410
210981
212794
206702
204126
211818
201871
201456
204489
210857
201747
202398
200651
205730
204580
219168
204622
216510
222029
203849
205885
208489
208626
214269
223234
209770
207886
203626
214044
245907
233140
240340
225743
205822
208585
204042
201834
204871
204835
200959
202230
205569
203549
213418
215849
210469
203191
211557
207196
208058
206817
202817
203667
205610
212516
210014
202162
201813
210592
202768
203880
202882
209575
214241
208539
204334
207277
204489
203001
204992
209279
204331
202955
205911
206515
206120
213668
207080
230875
223227
207856
206109
205992
219004
208118
203401
204069
251426
222426
221896
220153
218618
205538
204283
205526
229982
221885
213856
208786
214163
211949
209300
206062
211108
215199
208060
229351
236863
212251
218923
220356
207161
216527
208093
206433
214124
206522
206341
207680
214782
211156
218212
212549
209068
207091
209914
210829
209624
210005
216018
225372
215523
251720
220313
219853
228605
214593
208925
208019
209933
209821
218250
212368
212766
207571
209026
209153
208306
208659
219820
234940
219788
210915
209611
209841
209390
232408
236429
214145
210189
209606
215221
218616
213622
211794
209854
210776
215666
219114
227757
227383
238937
223867
232548
217262
214102
224902
223522
229878
225702
219587
216938
214834
216536
215500
223330
258486
223894
224063
226689
217536
215304
213817
215552
231500
233374
221197
234772
228010
218659
214755
223038
220771
218100
214983
214605
220390
230146
237835
237632
227049
220103
217233
214664
220708
237539
229703
221549
217533
220516
221926
216983
217033
220523
216043
221042
260651
231979
225714
228814
221997
216939
217586
230323
221319
239088
231689
227126
218301
221996
225987
225734
224258
227110
245686
249442
247877
267225
250654
231188
221234
229579
220247
225015
222320
231397
223866
227724
219294
219729
221789
219731
225216
219405
219083
220596
225815
222480
228410
224289
229947
223466
221561
238081
233240
233599
231138
222105
235709
234022
230935
236584
228785
231730
229286
232505
229338
227021
233090
226666
223251
225843
256441
250263
243040
241891
256751
232604
226555
226060
229287
227151
239127
225455
228937
226349
222614
223260
225810
235675
225290
223540
222649
223264
224019
230221
229084
227539
224062
231314
226559
227478
230342
235375
234156
230289
227917
233175
225711
225260
232905
231115
228047
228542
240936
245282
244515
225743
226844
236433
245228
235778
225619
227915
226119
226265
227840
233937
232622
234197
250242
263429
254213
244263
235706
239275
229853
231000
237498
230141
227177
228715
227109
235272
241016
231273
227821
227713
233901
228911
236653
231386
231503
233564
238729
268788
252021
237281
229454
235149
253262
241605
260876
232863
231044
231611
231073
238405
254615
233841
231591
236060
234992
230908
230155
235451
230971
234542
234710
232738
230139
231487
238746
241840
230765
244804
235581
233524
233935
233917
283335
238324
236566
245834
239934
235750
242777
239649
248452
235868
235470
232775
233707
239919
238578
240038
246271
239856
237769
254519
260669
242214
233119
241832
240083
233860
235350
236361
236722
242698
238802
242389
239523
242183
238551
237949
235649
241803
238981
235279
236500
241358
244109
240638
242344
251333
246322
238127
243458
238192
239892
240894
244727
236814
264064
252980
249385
287756
264870
257648
262491
241430
245433
238663
243919
255394
244623
238553
256878
252293
258660
250799
238727
248927
251365
244900
298825
300315
262031
312059
281028
274916
278619
266941
267580
255546
259174
272331
257224
247313
250934
245353
258412
262244
257203
251361
245665
246068
244582
246727
244737
254469
246897
266473
274173
250177
241996
263043
271201
253086
243257
244010
262970
262935
249252
252661
265170
290849
250647
257377
264823
270306
255014
266010
282452
300696
283697
269998
300758
268819
259226
254019
248319
246077
248611
254700
247099
245786
248198
248622
244454
244852
275490
325515
284331
259829
253700
256370
264490
259419
256702
275671
266808
266115
273249
282277
251720
246745
256387
246128
247058
245727
246266
250636
269080
256967
253803
247015
251924
253713
246785
267977
278867
280941
263315
284397
317747
284451
267663
256337
254267
255951
264991
252680
253005
248078
246344
259548
264627
260389
251602
252091
247802
250427
255103
250829
248631
257988
254197
251637
260961
258708
268187
267688
262911
285811
300674
314883
278033
276060
284762
286573
266212
270054
266495
291184
285391
265785
296269
279560
298317
273048
255003
257408
259696
261994
258947
256900
261111
274202
260646
257288
267568
260599
262179
263672
254245
276200
261600
256494
256248
255596
253331
262200
255057
256507
262819
255111
266484
267400
261620
254353
257482
266122
301303
265501
256196
257089
255468
252906
252909
258034
256344
257335
255929
256226
266479
277806
280256
275412
260474
256027
302077
307379
272217
265673
278618
295725
284220
276285
272444
276814
271298
289982
290003
265616
267489
267981
259438
268344
258411
256433
259368
258806
285130
376171
277832
310337
287483
266532
275518
279961
283043
307197
275360
293111
283173
277415
299295
281663
294376
273088
263873
268481
262672
265360
305727
274066
279048
276911
268890
271184
271135
278320
275756
262985
263112
273527
265570
268440
279722
265750
263059
264764
263813
272163
271909
265248
263505
265585
267927
266764
284553
273164
264798
265955
264132
288598
287836
280022
281593
290637
291258
268866
271036
269717
267381
266014
265833
293052
297906
272093
274706
271860
265900
268614
264948
265750
268795
272342
266258
271854
266782
272788
270538
265374
264799
274330
270306
269127
271797
264885
265125
268824
270811
264571
269816
317759
277459
269897
273829
269740
293728
273768
271908
284569
281151
270611
280500
265494
273107
272074
268816
271156
267726
267796
273631
269554
266919
278822
293174
286093
270605
277202
281950
272655
280247
288257
273222
272632
268941
271693
276409
278884
267804
268844
280451
283392
270303
286222
269856
276907
276333
273308
274566
291405
275497
272774
277579
289618
281484
275895
277655
300088
285594
279271
278125
297498
278028
279741
272543
279709
273700
272907
278798
296913
305701
291693
289575
285935
286337
285330
283814
303469
296697
294053
314350
308098
320058
284888
286032
298259
289692
305075
289449
293387
294107
293787
310779
292393
287323
317525
285423
317543
293564
296705
316040
294448
302784
303631
310786
318904
312395
293666
294536
298494
317942
295188
293839
311525
323134
285729
276266
277376
330676
285710
282292
283067
283828
292624
283921
282026
275618
319034
322006
313150
332643
293375
296202
315524
297188
293885
297844
315923
319100
323180
342738
322411
308567
306977
319429
311132
300739
348589
292932
290767
297427
305643
300377
303075
308346
296136
303761
286779
285171
294174
314248
292583
289415
282470
288810
280822
283753
281185
283797
298675
284562
290270
283667
293570
289954
282601
337937
288815
291382
287782
290322
281709
281811
289235
283503
288840
290905
285795
296921
286442
285611
284895
284899
287126
287620
283489
290496
287260
284612
288740
283679
282315
291101
289724
301055
298343
283987
283415
294914
291006
284006
290229
287105
283354
284419
283769
282771
286239
289226
293233
289895
287847
290235
287344
291490
283812
282893
286852
285307
284726
284342
288431
286427
291711
288948
284098
284217
288062
293813
290943
291090
289561
300220
291917
288201
290686
287897
286648
287859
287129
287883
287400
289891
288672
291280
287370
289079
286754
293136
288101
287466
298569
289179
289897
293796
289591
285794
302847
297851
313459
295304
301062
291652
290982
290969
288245
291273
288190
287778
287812
291513
311110
323926
303095
308019
308826
292223
291419
294399
311872
317215
305419
310517
297352
299727
294063
291574
298967
291665
298636
292002
293507
295114
293734
296641
296276
291846
293186
299846
294857
292759
300536
301696
300031
309377
292768
304569
297690
303806
304198
304831
292083
293501
338854
313419
304029
311964
300077
296667
299883
300565
301520
306782
348740
316375
321877
309179
304092
346630
326104
316320
310632
323358
329611
306210
305517
321457
329961
330897
320141
312270
334703
325898
307520
298187
301391
297333
311321
308975
314112
298672
299387
312316
311464
350898
303951
313216
334715
339936
318150
322784
324256
324590
383851
328942
333338
358912
329622
302175
302910
305137
319725
313687
308042
310497
307771
310049
300308
300863
300061
306863
302816
302231
308718
329652
393443
391307
335129
356968
317857
314804
321903
330439
323249
323653
330761
328571
333740
351310
383177
311670
310434
320481
315109
316403
322319
308585
310318
316297
311349
317348
353191
356941
323182
322520
322093
313801
324003
324595
321239
309908
330155
306906
306430
316040
313447
306089
307724
303923
312922
324519
316373
312135
316469
307691
307549
318130
351554
311741
315415
354522
322242
323824
325423
308746
314898
306699
314988
321813
313469
310858
309880
308704
325160
317177
308130
316802
312197
365486
321385
318936
319395
334600
316247
319581
316186
316951
315087
316228
310503
312786
360425
320901
317872
328227
318234
325176
332124
399463
323200
323687
359218
330156
323133
324178
342652
325446
343502
320144
317307
310974
311825
316422
309573
313285
323713
345510
320427
322021
334880
336747
312357
314785
312822
314075
310900
359310
323798
327020
323309
313839
311673
325218
331276
313139
318282
329770
317491
313401
312235
313381
313498
312227
317938
314274
313895
315964
311952
312814
324652
340775
323100
322305
317497
323466
313759
316708
320522
333648
320786
332250
322460
318115
319390
317591
316457
361696
320651
321027
323779
317030
324918
338829
329082
317558
322363
317073
315554
325985
347044
331548
327996
318947
322669
318542
317636
318533
325229
322736
320898
321789
317321
319166
314890
319895
327295
319653
316954
316286
324349
316931
320251
343818
336394
335819
330453
324376
320854
373715
369033
353450
341693
328530
322439
327493
322083
321452
326218
334894
335299
320922
328003
349350
333881
335413
344896
337240
335161
344148
348441
403255
377183
423390
370197
380570
357856
360575
367369
367833
374883
402161
357204
353750
354758
376837
410243
376417
350312
389411
464009
371908
357197
376585
372926
359050
366757
366718
387231
359329
345310
341497
327098
333639
339170
364232
344517
330996
340440
335785
329046
328383
340941
339450
327630
329329
333950
334878
335189
327839
327482
389205
393682
336408
340749
343933
347311
354458
351613
346798
372948
392871
347112
345788
334683
330653
326137
339047
349771
347050
339867
358820
355504
337748
334524
328742
339473
334100
327499
333855
332774
337298
346440
342338
343532
345736
345834
329333
331840
332786
347579
339539
327033
329724
344113
337744
329966
335521
332369
331804
346594
333028
333609
342745
338132
337326
337654
335617
336056
337796
423435
375625
352074
354871
331768
344426
336950
348110
391094
338783
338166
345317
346299
346583
347255
381216
371783
340547
366415
360052
346609
338944
332662
334014
337845
354678
332897
336905
358829
343478
347151
345628
336314
334954
404146
348432
341431
348803
340943
334188
337527
369177
357719
341269
342897
340277
343385
347680
358615
360673
362492
343303
343834
347515
339106
334780
337682
377505
375129
353809
344875
346080
355095
351299
343927
343160
353262
338808
337685
337408
347526
344043
335871
336319
345444
348012
338826
336362
348159
342451
339077
342266
372206
355196
338232
344248
347833
345280
336577
347210
353277
360865
345964
342838
344776
339485
337934
354939
350181
345787
339390
348255
342760
339589
344264
337167
342849
338744
343896
338239
345794
339966
340623
345428
353009
348947
351451
346874
347651
354366
357866
339359
343162
361528
353666
358491
346823
373705
343827
349350
357356
347791
354570
391369
353303
356323
350578
345024
346067
342775
349002
363672
352249
343618
352052
353359
348235
348199
360220
355184
351406
349656
350729
345511
346360
344754
349027
366785
355156
351437
347041
355073
367235
346286
347075
345891
351950
348266
347683
354977
349718
354161
350905
348012
348347
369399
349655
372710
363296
353985
349508
346761
359711
350479
355767
346292
352133
347158
348394
347728
347413
346918
349864
355439
348946
353303
349433
354894
360138
359970
366993
367401
349636
351093
360125
351350
348432
350807
348540
372573
371879
361180
350506
348865
352845
348092
352299
352033
373296
358572
355682
350441
353872
359317
350504
358025
350495
351668
356240
382958
373386
359235
354841
352832
363389
361746
358868
366034
360382
393414
365883
367856
392082
361181
359468
360499
352376
400608
363838
359355
366949
358624
352449
352294
352761
354721
358584
352720
351827
357757
355249
357673
353061
351609
361108
356482
363203
353362
359758
356007
357503
361052
388977
372359
359749
369235
372542
365933
364048
368696
361526
360970
381625
407016
375365
395340
370569
372914
379556
364433
377483
373531
397906
393946
387304
371961
357393
387388
387052
371019
416153
376307
380288
374143
380660
372905
368674
402996
418152
419540
389571
371776
379583
390816
394387
367259
377486
363460
371071
369492
361412
362778
361821
366503
361979
369978
388760
372897
392523
436868
375658
378053
367456
367760
362847
378836
430273
371224
371811
374514
367842
362912
371019
376957
417420
371380
368287
369414
391840
398893
387069
362618
364282
366751
391136
381955
363357
363322
372419
376222
364893
364953
368071
364386
384157
381246
369879
390862
386250
374851
368988
377306
365334
364754
376892
368034
372045
365827
364046
370720
368255
367389
383848
363546
372823
367616
369973
379375
382903
378299
371551
372775
363956
373176
366855
369017
382483
368245
418529
374986
397126
376741
371238
372396
365949
374507
408755
381459
412814
386045
379475
376444
393140
374542
379145
435830
392987
382461
401691
392329
374964
414132
387579
381798
368862
370403
371922
375203
375774
374536
389189
412026
379344
402109
375296
396908
390094
396922
452876
403230
413181
395865
416299
415762
388011
415637
426906
399353
384399
396157
390333
392468
392421
400976
394564
379868
378623
377816
387724
397041
376641
379746
392811
374844
374120
374726
387136
376188
381624
385240
376350
384060
373939
378795
379542
379599
385928
383536
384890
382155
374864
378287
383846
376126
374657
378520
376488
391479
379272
377883
399258
381580
378369
379793
394489
377453
385609
382977
431122
398213
429544
397414
401448
391902
399354
382199
379551
385823
380440
379883
378695
380101
383107
381403
380731
384743
384663
388511
382952
379887
396125
388582
396681
382827
399087
441051
388170
387324
394805
386970
386123
383081
396235
392712
381783
412230
411343
391264
385291
385120
382808
399351
391419
394781
390520
386248
385557
401357
387927
381700
385320
384797
386547
388176
398409
433504
399077
391356
389464
400777
389455
391019
383376
394252
413095
397849
385682
386470
388019
391689
391932
385868
405660
391839
397720
383823
429132
396469
400127
384826
388385
401437
396290
386653
391839
392058
421744
415241
404003
391599
406918
391394
384604
382982
384231
385618
390235
384764
391107
386532
395551
385651
385683
395979
384928
384893
392637
390870
388241
418342
426118
417508
420375
407533
421240
393567
401496
419099
414864
406144
406151
393875
386603
396905
396520
454714
397630
392837
400388
396910
408562
448555
491376
414050
414593
414785
412437
413759
459692
442099
442280
431263
403788
398300
407003
410174
398770
397545
401512
405805
407986
407916
413045
388831
395384
393044
389422
396101
415978
453009
449828
423491
399685
394501
393750
440743
429158
393861
405770
424233
415457
403910
394892
398226
398746
395138
400805
399404
396936
403304
395730
403087
393212
394125
399818
397982
393949
394412
395713
404412
394780
392940
392565
399243
397744
402221
400754
397712
400140
401699
405496
420048
407195
395239
402348
401436
393512
393545
397407
396267
394327
396592
394152
398001
399771
403535
399453
399960
403213
397803
414082
407212
398455
417499
405727
393353
400021
397921
396650
398589
399666
394462
395485
393836
395758
401503
417849
394816
408709
420712
395585
398046
418048
406875
397323
404435
397775
410266
398131
409939
406141
410976
399280
401597
418692
431532
480749
417275
451933
411221
411219
408552
418793
412670
414229
413915
459961
406958
405708
424352
428505
417866
415858
415810
414076
426196
399534
410710
402010
403166
408927
438228
409681
405962
405312
401963
410883
404359
408397
400375
403852
411160
408394
410401
415432
413160
406411
402681
415206
420255
418915
423693
420508
413650
410641
420021
411980
424928
409569
403712
401364
412303
417942
403252
408240
404113
408449
402381
413463
406741
415709
414069
407564
402891
402505
404548
429672
423814
418164
423402
422088
411985
425584
423070
404360
403041
404873
406674
410750
405365
404581
403958
409749
407248
406218
405798
410826
414994
410124
406551
413319
435497
449331
426090
424463
417760
410408
407761
407369
407518
409711
412264
406489
405488
407975
413043
427557
420589
407707
410602
418898
408968
427710
416547
434759
415946
408309
414635
436143
412947
409033
410818
450532
412862
409714
433845
413144
412702
423559
414534
415232
413746
413136
411598
412710
409861
416850
414891
426080
437502
428701
423643
416924
420908
412403
414432
418750
410659
416032
419667
415433
418834
420033
428745
414558
416294
417106
414095
412719
424763
410832
410983
424959
423801
417214
424691
429936
425472
423139
418803
416336
417289
414086
437884
423717
417834
423554
414295
419008
419377
417158
413478
419543
418547
413405
415371
443765
445902
432511
439369
426775
441878
431584
419825
439345
424859
427884
420188
441453
433715
420650
423721
420625
418074
416771
420092
422451
441495
437451
418653
419545
430042
417487
417469
424636
422134
421959
418076
419356
422959
422589
422604
427823
418936
422091
427001
420696
417613
433692
443536
423548
432922
423117
432899
421817
423921
418118
427155
446426
431970
430579
432532
428075
443161
457054
442895
432935
507867
478110
436758
426729
423854
420693
429497
423349
432880
419688
421319
431814
423765
449923
430422
438711
436731
422320
422922
430167
430936
441480
426603
429963
465117
453446
450237
463260
431803
428717
434130
427659
425723
428953
422797
423029
428779
424767
423704
425406
433804
431631
426612
436029
424105
434247
429321
425460
446777
430697
439746
447282
425891
426276
425128
423833
427554
426279
425300
428899
428586
427020
428242
431444
426628
426401
432586
426290
425682
443923
454015
438336
433008
442824
432941
428121
435212
434764
448467
441875
444831
437186
430625
433360
436056
435054
429696
431464
433639
428405
441306
440015
441800
443666
439856
445648
475691
454510
446920
445107
439712
445185
461628
464315
447647
471440
477004
481703
534884
489925
488474
522904
483052
446543
437559
439138
435069
432236
440369
436517
438767
453218
461054
432538
493668
447878
467942
469869
475337
465635
481801
477818
480265
482484
482317
482023
459459
437470
436339
457495
440675
449112
448587
462111
461809
461147
483168
459473
449279
475120
453568
443546
459061
443352
441813
441546
472740
461459
465397
475463
484486
451773
448576
452275
458901
448740
454272
449689
453895
454132
455899
448735
449518
449670
454463
460109
466941
470384
483669
487552
498190
474949
461126
473239
501454
462647
471598
458220
468042
467287
508821
483570
489038
503136
492815
472356
465727
512872
474277
482676
490114
486138
495458
509904
506149
476798
478257
464886
472561
504276
511063
487527
479266
472780
467563
461706
454991
458492
467736
480836
480607
475426
457639
487647
471666
462099
479449
456575
456419
463374
463734
464883
466415
452699
459213
460383
509239
466358
479249
459602
489770
464981
463689
457237
475789
466959
461413
454054
472465
471971
441352
453316
469797
470868
462925
495125
474482
482761
484615
480478
494854
501348
492674
472053
480094
485297
509366
475292
456889
448101
477303
473389
467117
490663
472775
478371
522018
511711
484887
477769
492219
527884
495327
498503
482537
484178
485376
489503
523145
478449
461128
473319
466823
461782
462499
473942
471657
479732
466187
466494
460902
473436
460309
471935
463057
467284
460833
468003
461053
468653
463471
477360
471224
471130
469732
482797
469783
466240
461580
491498
487179
487312
512828
493134
460107
450029
484001
486372
474209
474327
483006
474555
483359
493551
497554
469448
470625
469873
453770
455976
461019
464057
456545
478510
474371
467909
478021
470550
477338
474829
478351
493651
475509
470138
479119
471682
485465
504745
478636
457969
462736
463186
460969
459744
451464
465859
456993
457660
489830
472628
475112
506031
487361
462520
489073
516088
529344
507297
512495
496585
