53
65
66
80
72
75
75
87
86
81
82
79
84
84
80
84
87
86
88
87
88
87
84
89
85
85
86
86
87
86
88
88
88
92
89
91
89
91
93
93
95
95
93
92
95
92
93
94
100
94
91
96
89
97
96
98
196
99
99
97
95
99
99
103
101
99
100
99
97
102
102
98
104
106
102
100
100
101
101
103
103
104
102
108
102
104
106
105
104
103
112
99
107
107
107
107
105
107
101
111
108
100
108
107
106
107
106
106
112
113
111
107
107
111
114
118
110
107
111
112
110
111
113
111
111
118
114
108
112
112
115
113
112
109
120
113
106
112
113
113
111
115
112
112
116
117
112
110
111
114
117
116
117
115
113
114
116
121
113
116
113
114
112
118
114
118
116
115
121
115
113
113
112
117
117
119
118
116
118
117
114
118
123
117
119
121
115
121
229
117
118
117
119
119
117
120
120
119
118
118
114
123
122
121
119
119
118
122
122
119
120
119
119
119
122
123
123
130
122
123
123
123
119
115
122
123
125
123
125
123
127
125
124
124
121
125
122
127
120
120
124
123
123
122
124
127
123
127
122
122
122
126
124
124
124
131
121
123
124
128
125
128
124
128
128
120
126
124
124
123
122
119
119
120
125
125
126
126
123
126
127
124
123
129
129
128
126
125
125
128
125
134
132
267
128
128
131
125
132
127
127
130
129
129
126
133
132
134
131
133
136
134
133
136
130
130
133
134
134
130
143
133
133
128
130
131
134
136
140
135
134
130
140
131
138
135
136
137
134
140
137
133
134
136
142
142
134
134
137
139
134
135
139
141
139
142
136
132
145
136
136
140
142
146
140
141
139
140
136
135
142
138
141
140
140
140
138
157
137
147
141
145
141
140
141
139
138
144
145
139
149
141
144
149
145
144
143
144
165
143
145
145
141
149
142
162
149
148
150
145
139
146
146
147
153
145
143
142
149
147
144
147
160
147
150
180
147
150
148
156
148
148
157
148
148
151
150
149
153
153
150
153
154
150
149
155
152
153
158
146
152
157
151
152
156
153
153
158
153
156
157
156
150
155
156
162
151
153
151
192
181
150
157
162
157
156
149
160
162
258
163
153
157
158
155
157
161
160
159
165
159
161
159
164
161
160
155
156
157
191
160
161
162
158
159
163
161
152
158
158
166
159
166
169
165
159
266
190
159
166
159
162
156
168
158
172
189
159
186
162
159
190
160
162
167
161
163
170
159
163
164
167
163
158
169
162
159
169
167
161
200
169
163
173
178
160
165
168
164
163
168
166
166
174
167
167
163
172
174
173
165
169
167
174
162
168
172
165
174
173
162
173
204
167
163
174
172
163
168
199
172
165
177
171
169
170
166
165
176
171
167
178
163
164
166
193
169
168
182
170
169
185
167
170
173
167
177
172
176
167
179
171
173
169
171
173
166
177
171
181
183
166
173
179
170
174
172
178
174
172
199
181
172
187
167
172
181
178
174
187
169
174
179
184
179
181
188
178
170
196
180
185
184
178
174
181
174
178
168
168
170
178
183
180
175
183
176
173
186
176
184
184
179
179
176
184
180
185
181
178
175
188
181
174
184
176
178
194
177
178
180
210
179
181
188
175
179
180
180
178
192
172
181
195
186
181
180
188
186
179
180
180
180
182
179
184
183
190
183
185
184
189
185
182
182
184
195
184
185
194
181
188
184
181
186
197
181
181
177
190
185
176
190
182
179
201
179
185
188
171
183
195
182
180
179
219
186
186
207
181
184
188
189
179
215
186
188
186
186
185
176
193
183
179
184
182
174
185
186
181
187
188
183
193
191
180
188
199
185
192
217
183
179
210
191
183
192
183
183
194
188
186
187
214
187
189
195
194
188
211
186
190
191
188
211
200
188
187
190
196
188
185
189
186
186
190
189
187
188
190
186
196
194
192
191
201
189
190
189
191
194
201
193
193
222
192
187
198
192
199
186
193
197
189
199
189
193
196
195
182
192
189
197
195
193
189
187
197
189
193
195
192
197
199
190
196
199
189
195
203
194
193
192
200
196
200
197
197
194
199
196
203
198
196
201
231
201
193
192
234
189
192
199
194
190
196
194
193
206
190
195
200
193
199
195
199
196
192
197
199
193
213
197
206
232
200
194
200
191
196
198
205
195
201
209
195
195
199
185
195
204
197
196
251
200
193
199
211
189
198
205
193
194
203
197
205
210
198
201
201
199
204
198
202
204
197
211
212
206
206
194
197
229
201
198
217
200
192
194
197
196
198
214
200
196
203
192
194
197
193
195
213
202
196
201
223
192
194
206
201
199
210
196
197
201
200
198
203
199
198
196
201
198
196
206
205
198
209
198
199
205
198
198
198
197
197
199
199
197
198
208
200
191
212
217
206
219
201
203
209
198
203
205
215
202
203
212
203
204
204
199
207
206
201
199
214
203
203
201
224
203
202
214
199
209
239
207
202
235
199
204
212
202
201
208
210
203
204
217
209
207
209
207
202
209
198
203
213
201
204
203
234
209
207
338
208
209
210
201
202
210
210
206
216
207
206
198
209
212
208
208
203
203
231
208
210
216
206
203
214
200
217
204
216
209
208
227
206
207
215
209
208
216
211
204
215
210
213
207
256
202
205
219
218
205
219
206
206
216
205
202
214
200
204
203
230
203
207
214
201
206
221
204
203
217
215
207
220
212
209
208
213
212
206
212
213
205
217
207
201
216
210
210
218
207
210
206
217
202
203
222
211
206
221
212
210
220
204
209
220
212
209
209
214
203
210
218
207
199
235
212
209
221
218
204
216
205
210
212
212
211
209
208
203
211
218
212
211
220
209
208
202
206
208
211
223
207
213
220
210
210
217
209
213
222
210
208
219
213
214
208
225
224
210
220
215
216
220
215
213
221
206
209
222
215
219
225
222
204
215
217
216
207
215
207
217
216
212
216
227
225
214
220
222
206
216
209
212
213
221
210
209
285
211
212
231
210
213
213
228
217
209
217
214
215
216
206
213
228
209
221
226
219
214
222
222
217
217
218
217
217
231
216
207
222
218
211
221
216
213
213
219
227
219
214
213
212
240
221
211
231
209
209
230
213
214
217
230
223
221
229
215
216
227
215
218
223
223
220
221
218
216
211
223
216
216
233
216
215
225
213
216
228
220
216
216
216
211
222
222
217
215
225
219
239
226
209
215
224
213
224
224
219
218
224
228
221
221
218
219
225
225
222
213
224
216
213
220
215
219
219
231
213
226
231
221
212
232
215
217
231
220
216
241
212
238
215
223
218
225
229
220
219
253
216
228
225
217
218
220
218
216
212
248
226
219
235
212
217
229
217
222
224
220
219
226
224
218
212
253
214
217
242
218
236
227
220
219
226
225
218
229
222
221
214
224
219
218
221
225
221
225
221
218
240
220
219
233
217
228
216
224
215
219
226
224
212
217
224
225
231
221
225
243
240
225
218
255
215
218
220
223
214
239
214
217
228
219
223
239
222
224
221
243
227
226
228
219
223
239
226
220
234
229
223
224
214
221
231
224
226
224
231
224
221
229
222
234
243
227
229
229
223
226
222
229
222
231
225
222
222
228
224
229
232
222
222
240
226
221
234
228
233
225
228
224
223
233
224
229
233
226
218
238
225
229
227
229
224
219
243
231
237
236
227
225
238
222
223
263
222
218
226
232
223
223
226
231
226
241
219
229
245
221
227
225
225
223
229
253
221
218
229
225
232
230
220
226
250
236
223
238
222
233
223
233
220
226
246
217
226
234
226
225
237
231
227
229
227
229
225
237
220
229
236
224
231
240
230
225
249
227
216
224
220
225
229
249
223
223
233
227
225
243
227
233
240
227
224
246
227
224
226
235
230
234
252
225
222
226
230
228
234
235
237
235
228
229
234
255
230
235
235
235
233
251
234
233
244
234
230
256
223
225
225
240
225
231
229
236
227
249
229
228
242
239
230
237
237
231
228
235
229
229
234
239
231
238
229
233
242
238
230
240
235
400
230
262
256
237
237
230
231
237
230
230
239
230
230
239
234
233
247
240
225
225
240
223
227
237
234
231
235
226
229
246
230
226
228
241
230
267
245
230
233
262
255
234
242
228
228
241
233
241
234
238
234
233
237
237
239
244
236
268
266
232
228
246
235
231
234
246
234
228
228
229
242
241
228
227
239
226
232
247
236
258
239
240
229
238
246
228
241
261
237
230
234
241
238
245
237
243
262
243
234
234
231
233
234
243
252
236
241
238
242
246
243
235
232
240
254
240
266
231
237
244
231
242
242
240
237
244
234
231
234
240
246
240
251
307
234
239
259
236
249
247
244
262
235
240
235
240
239
227
251
234
233
244
301
263
247
246
246
242
229
243
232
248
239
232
243
244
247
277
235
235
250
239
236
244
259
234
235
248
248
241
245
237
237
256
245
239
241
243
239
285
238
247
264
240
236
238
247
237
238
241
247
236
248
239
243
245
243
241
243
351
245
248
243
241
242
247
241
241
249
248
244
255
243
246
237
271
249
252
261
254
252
248
246
245
257
260
245
253
254
247
256
254
242
248
249
242
243
256
240
259
287
248
248
277
246
249
255
252
243
238
263
236
239
278
260
268
283
248
246
259
263
287
241
248
245
240
252
254
260
260
244
247
246
234
245
254
256
248
245
247
232
243
273
240
237
252
251
338
255
254
267
256
249
253
250
263
261
262
244
250
246
256
252
247
251
248
238
255
261
252
241
247
248
353
250
249
247
258
270
260
267
244
250
245
256
251
243
262
258
243
265
253
252
258
245
245
273
246
256
254
249
242
246
269
253
251
254
254
274
247
274
241
258
246
247
252
254
282
249
266
254
257
255
258
244
264
243
246
346
254
255
261
264
266
251
268
247
256
316
261
263
264
256
250
288
282
251
259
252
263
250
288
258
259
273
265
248
280
262
253
266
251
256
287
265
265
284
262
250
252
270
261
254
264
295
261
265
261
257
262
259
249
262
263
252
266
265
275
248
257
258
267
281
293
258
273
260
265
266
271
296
274
268
266
267
275
269
285
279
276
257
281
269
270
270
271
268
270
278
300
267
283
259
264
286
276
297
284
275
270
272
272
307
267
280
278
267
287
274
277
295
282
306
282
273
284
280
309
276
286
289
292
279
313
314
268
292
291
309
337
319
358
324
364
298
317
330
295
354
339
313
312
330
334
369
319
328
324
321
333
347
319
309
337
435
355
373
374
362
363
383
370
363
386
346
387
414
397
388
386
345
360
396
368
382
408
380
381
412
398
377
378
350
376
409
400
371
382
466
371
405
430
374
423
349
331
375
370
380
387
413
386
384
418
395
379
374
368
366
375
361
367
388
407
424
369
372
362
420
387
372
386
395
454
377
561
394
400
359
393
410
374
352
344
397
397
416
359
384
408
435
424
368
412
383
398
398
386
368
407
425
522
374
371
371
356
385
399
398
344
397
360
402
379
356
400
370
393
379
405
366
390
374
491
381
373
385
424
448
380
398
379
375
497
390
378
403
407
368
372
367
382
391
347
393
384
373
337
379
385
394
364
373
369
359
400
391
375
354
394
340
346
384
374
360
373
363
329
367
381
356
398
343
373
341
364
362
338
360
323
353
396
366
373
375
352
387
374
373
354
372
350
315
329
385
353
325
357
315
317
338
332
318
341
327
341
329
339
378
333
344
372
341
342
356
356
331
315
348
358
304
361
326
332
358
327
303
326
334
317
321
338
339
305
357
345
329
323
332
299
310
327
332
312
320
324
323
378
359
307
316
345
327
315
316
315
316
301
360
348
299
352
317
320
325
343
313
328
306
319
303
295
324
482
343
365
309
302
330
396
325
340
327
309
332
348
357
360
318
329
317
341
341
322
310
311
359
341
337
327
362
308
325
372
315
298
366
337
332
325
324
315
330
354
326
343
329
297
330
349
324
370
328
316
304
351
386
315
327
318
322
337
340
338
303
346
364
310
318
345
354
328
338
343
329
330
334
340
337
326
330
314
343
357
432
344
392
374
417
319
331
314
299
371
335
347
335
336
339
358
368
317
320
358
332
318
324
345
310
374
377
329
322
331
347
346
362
307
324
330
368
329
389
333
316
363
362
331
342
329
317
310
399
341
326
342
347
316
358
324
339
331
333
334
301
363
341
320
322
356
325
322
341
340
328
327
341
356
319
351
347
357
328
315
348
362
323
309
334
347
388
329
353
348
347
353
323
317
352
331
314
325
338
364
309
344
359
325
301
358
331
320
341
364
301
315
389
354
302
296
312
333
334
338
323
330
324
318
321
424
335
307
386
309
328
297
289
300
327
299
312
399
292
402
471
315
305
322
344
309
297
332
315
297
307
307
296
300
310
301
303
306
282
299
295
303
325
317
296
290
366
294
277
323
301
317
294
307
297
303
314
311
284
295
298
292
307
321
292
318
330
291
298
294
295
286
307
321
295
311
296
323
316
277
289
341
304
303
295
315
298
308
326
305
297
311
293
298
319
309
297
304
317
305
339
340
284
318
315
289
304
322
320
344
313
311
299
296
329
297
297
319
331
345
304
301
295
347
419
304
414
306
309
309
290
287
325
308
301
292
329
312
288
300
291
291
356
299
292
308
297
334
305
307
293
295
311
311
331
302
320
331
305
347
293
306
306
311
316
302
295
343
301
305
308
310
332
313
311
306
302
308
321
335
308
330
406
319
416
304
305
344
330
313
318
325
312
330
317
418
318
332
299
310
351
299
425
316
310
304
321
317
357
322
319
304
305
304
313
317
455
318
311
323
310
280
307
288
325
398
308
313
303
309
363
320
318
337
311
321
395
316
329
309
312
305
304
313
326
329
348
331
318
355
307
331
325
316
346
305
305
309
320
334
313
324
356
323
321
341
314
330
329
393
359
350
289
321
293
300
308
301
315
325
296
292
313
306
299
304
319
305
323
311
295
300
316
345
316
326
310
306
314
312
318
306
306
315
354
328
339
322
300
324
311
313
311
301
289
313
297
305
304
298
298
301
322
304
304
302
303
314
482
338
310
320
312
312
297
305
312
304
315
327
324
300
348
315
317
308
303
308
302
305
306
301
325
310
305
300
311
328
304
309
309
310
297
307
311
352
356
386
321
300
299
331
397
356
396
359
337
301
314
342
324
350
327
297
303
309
390
354
374
327
323
325
320
311
329
333
291
324
314
302
352
338
325
357
361
363
341
308
333
318
335
333
301
309
343
375
330
350
373
346
362
309
319
305
316
322
319
317
337
314
358
334
337
421
330
306
312
328
418
317
319
309
324
333
337
338
363
359
344
341
322
336
334
352
344
303
328
369
330
363
369
352
370
394
356
325
312
323
321
313
290
318
523
296
343
368
320
347
368
337
333
334
336
329
316
355
301
314
352
393
348
360
341
360
321
315
330
368
298
308
301
303
338
331
354
350
354
348
333
316
334
356
322
359
293
347
313
324
358
335
382
335
374
376
374
348
353
373
332
362
301
316
332
361
349
345
363
351
360
329
321
370
351
327
317
323
409
318
340
353
341
356
367
337
390
349
316
328
330
339
374
353
328
324
385
364
364
360
414
370
382
358
354
363
354
341
308
322
296
347
342
370
343
382
389
357
321
433
388
327
327
308
309
356
297
360
349
371
343
365
370
390
334
329
334
341
327
375
347
318
353
392
310
363
391
370
343
354
364
352
339
322
365
324
347
371
316
309
336
321
324
354
455
338
324
368
328
316
347
357
332
312
324
309
302
349
333
294
332
306
305
323
338
310
366
353
334
341
322
331
326
335
348
364
326
346
353
328
361
315
334
425
327
328
315
316
303
317
312
310
305
320
316
325
312
354
331
333
305
324
307
319
316
330
301
318
334
320
294
341
311
319
306
339
287
309
294
287
292
279
291
282
296
297
311
306
293
281
296
277
281
320
282
316
283
298
280
318
291
310
279
283
280
307
297
283
290
332
314
283
280
299
293
298
300
305
291
306
324
292
351
294
291
307
297
295
317
311
295
331
304
298
291
296
332
286
300
293
302
344
299
306
327
294
328
308
297
298
296
311
306
308
307
293
297
307
318
293
294
298
322
338
298
291
312
300
303
296
307
292
318
311
306
330
314
303
328
298
376
309
308
310
302
305
333
295
288
306
287
289
321
298
279
309
310
303
324
337
309
317
312
302
304
304
333
298
304
287
301
307
319
312
299
325
346
331
306
305
324
309
301
320
307
315
316
309
331
307
325
317
323
333
371
306
314
295
305
299
296
305
308
290
306
300
322
318
320
290
333
293
337
314
333
299
306
310
430
307
296
289
319
297
301
297
311
310
318
311
287
295
316
287
304
296
302
320
292
302
319
309
308
315
316
311
307
299
294
304
297
289
312
297
330
335
301
299
309
300
294
319
291
321
312
299
302
303
315
296
307
292
292
285
329
316
333
328
295
341
304
311
294
295
302
302
310
295
290
303
316
302
291
290
298
303
305
329
307
302
289
297
295
308
295
306
328
293
320
407
303
349
353
306
298
298
308
288
285
308
296
335
302
311
302
306
310
317
298
307
301
336
298
311
295
305
293
310
314
330
315
326
318
302
326
301
341
301
312
303
308
306
292
303
301
294
310
300
324
306
308
292
297
323
359
300
301
306
297
303
300
314
314
304
326
316
329
327
305
323
350
302
293
314
299
334
308
307
296
302
294
337
296
307
375
328
311
329
291
304
313
316
309
313
292
302
302
378
293
357
298
303
341
318
335
320
294
300
311
308
314
302
313
334
303
311
289
303
342
312
288
313
324
305
310
309
282
307
290
326
309
329
338
289
311
305
314
362
296
330
308
297
310
307
295
302
309
308
316
311
310
309
314
330
324
305
297
300
290
315
321
307
316
355
311
323
369
299
319
325
301
310
351
305
295
321
317
307
305
324
290
327
322
310
320
303
329
303
324
305
332
321
304
312
297
346
303
310
326
345
300
300
313
302
337
327
310
311
303
326
306
323
301
307
339
310
319
311
302
328
300
314
304
314
306
312
300
306
300
311
322
323
311
338
314
316
339
348
315
307
298
313
307
313
306
314
335
317
313
326
298
310
343
304
338
374
330
317
303
311
318
337
307
308
319
317
347
308
333
307
315
318
302
308
319
314
339
298
310
299
298
304
298
315
323
327
323
330
323
317
304
317
317
314
340
302
313
309
330
333
332
326
300
339
310
303
312
320
312
309
307
342
314
302
482
317
317
334
307
350
314
318
305
319
324
308
326
335
455
314
327
316
343
328
305
323
313
353
315
326
326
310
324
346
316
319
332
314
331
331
341
329
353
312
313
323
326
324
318
393
342
343
322
344
350
364
320
331
309
334
320
310
325
311
330
317
340
316
322
305
331
306
355
333
327
315
313
341
318
325
324
336
339
330
350
349
475
345
330
309
339
349
325
316
327
315
321
323
309
345
327
334
325
350
317
329
312
329
308
318
312
317
318
306
332
351
354
308
327
315
327
329
327
348
319
325
329
330
361
330
344
326
342
314
320
336
340
325
317
320
312
332
328
320
317
334
327
344
346
332
351
301
332
330
383
309
317
312
315
328
334
310
352
329
343
306
330
308
364
322
322
326
340
327
306
334
319
328
352
362
322
322
329
342
319
336
368
326
362
335
340
321
350
316
314
356
330
332
323
329
319
358
323
336
322
329
322
338
373
329
338
332
321
327
345
340
339
318
346
312
334
344
351
313
315
333
332
358
345
321
350
316
347
323
325
332
316
318
356
337
318
324
335
359
322
342
362
327
342
344
350
338
322
336
333
334
352
324
314
351
333
324
331
325
346
352
338
335
342
325
331
322
339
319
360
328
332
329
354
331
347
359
341
351
355
330
321
320
321
340
327
362
345
319
336
350
317
332
349
322
332
338
348
330
371
345
331
333
351
318
338
361
314
320
360
325
325
332
332
331
338
323
331
346
339
367
342
385
322
332
317
315
318
332
321
326
329
352
421
360
331
341
374
365
316
391
335
341
332
335
334
308
360
325
353
348
321
341
361
344
338
335
325
428
328
372
421
319
354
334
347
370
316
318
345
341
319
375
334
318
342
317
323
327
381
312
356
345
337
344
335
337
341
333
334
335
339
316
343
358
345
345
330
330
383
326
349
346
341
338
348
314
333
318
322
328
362
497
332
358
331
356
339
319
319
334
327
323
328
400
333
336
334
324
331
335
347
332
357
367
334
373
358
322
319
328
342
364
356
325
331
357
333
313
334
340
321
357
321
332
347
366
347
348
325
357
331
350
342
350
342
325
329
387
329
332
345
338
331
361
376
368
330
339
324
341
364
342
353
344
324
322
358
344
329
345
341
362
336
327
345
349
336
327
344
359
334
326
334
347
333
361
353
358
325
341
333
355
328
320
340
530
337
364
331
340
334
347
360
339
328
375
334
325
347
526
332
331
344
335
370
334
349
318
338
328
330
356
318
329
335
330
342
342
364
321
332
337
325
347
390
349
356
353
344
328
346
379
359
351
332
329
343
349
361
359
341
321
339
377
336
343
342
333
374
352
327
334
330
330
321
370
376
335
346
342
354
343
408
359
346
344
342
361
366
350
339
347
351
330
338
353
330
438
392
328
350
348
392
367
425
351
360
326
348
367
331
344
361
372
355
375
400
342
350
342
360
375
349
329
351
335
347
350
362
339
443
351
343
354
379
343
340
348
461
355
368
376
358
359
391
336
368
341
353
348
388
375
335
359
354
363
367
445
377
349
331
342
344
339
375
355
358
342
342
340
356
331
344
321
388
351
359
364
354
359
338
349
368
331
344
355
349
332
354
350
341
352
360
346
367
324
388
347
361
345
340
347
336
330
360
368
352
328
350
345
339
361
345
348
330
381
339
362
332
345
352
365
341
354
350
383
399
349
346
347
331
348
340
329
356
397
347
360
334
336
339
364
342
332
357
348
335
371
356
349
339
333
350
365
345
434
345
344
340
354
355
355
337
341
366
376
355
353
373
343
345
370
372
372
373
351
340
348
351
432
351
341
345
354
345
364
363
351
353
349
390
357
347
360
341
369
364
355
380
365
361
385
338
356
350
340
358
367
352
345
372
365
345
355
357
383
349
350
350
351
332
528
361
335
360
392
357
353
382
348
350
349
378
347
341
358
341
343
384
349
359
347
337
376
378
358
348
378
347
343
341
359
342
389
349
396
357
357
360
348
357
378
347
345
355
334
401
353
347
346
368
336
354
390
367
378
355
363
355
365
367
345
357
379
396
373
364
363
362
365
372
345
371
378
363
359
371
357
351
352
354
378
402
357
373
363
400
356
343
374
368
361
371
391
350
362
360
371
344
403
394
362
365
370
350
357
347
358
358
347
363
398
384
344
402
357
362
385
346
373
363
374
454
363
358
370
383
370
412
336
463
360
408
405
353
385
352
400
395
378
372
366
394
370
362
371
408
364
358
380
401
368
360
434
429
344
390
342
363
408
378
356
388
371
367
372
385
351
357
404
383
475
383
351
349
359
352
340
356
391
353
373
360
360
429
386
343
347
385
340
374
363
364
359
356
366
348
356
362
378
334
417
368
351
356
337
349
375
409
382
351
351
354
390
359
358
401
364
369
354
368
372
344
365
371
354
364
373
342
410
363
335
361
355
370
375
358
391
357
366
359
354
383
372
371
394
376
338
380
396
353
347
370
351
349
361
341
359
392
385
368
364
399
388
371
370
385
361
356
358
388
378
379
364
379
395
364
377
357
357
373
382
352
375
365
365
380
421
397
352
380
363
353
359
358
392
366
356
395
417
391
363
395
368
360
384
371
350
370
363
397
360
385
372
381
422
378
372
369
390
352
364
360
368
397
386
410
514
380
390
368
392
363
478
369
363
362
367
372
377
429
359
375
361
416
370
367
351
406
390
354
363
356
383
373
404
364
401
373
390
384
377
356
351
369
359
373
398
402
377
365
390
431
353
364
351
360
375
366
371
404
369
357
364
398
394
399
410
371
421
364
376
374
365
362
439
394
376
376
355
408
361
362
399
366
387
385
356
372
396
369
403
477
372
396
383
363
440
380
365
369
402
395
368
382
365
365
392
390
399
376
363
353
375
374
392
378
387
398
402
446
369
371
412
386
373
418
379
403
364
386
371
390
373
394
368
431
406
397
391
369
407
366
364
363
407
388
411
369
418
391
375
353
384
437
369
369
374
374
393
367
366
381
394
391
394
418
373
371
362
382
390
396
428
368
412
396
365
402
407
399
417
396
394
405
374
379
388
373
383
407
411
366
393
393
376
365
387
382
382
385
420
378
433
379
412
410
402
416
376
384
398
392
377
406
387
384
401
416
386
399
414
375
396
431
389
385
476
372
399
405
386
417
420
491
383
409
409
424
446
450
397
376
398
396
388
376
396
406
449
397
412
391
388
385
399
389
491
436
409
407
411
403
380
410
399
418
387
425
385
386
384
403
405
422
393
444
375
403
396
397
414
407
426
412
412
396
405
382
402
420
426
402
414
381
430
411
378
392
421
416
385
404
390
414
404
394
435
395
394
432
397
390
401
375
390
401
397
420
395
386
420
395
417
391
391
413
395
418
395
386
437
389
395
415
390
394
385
433
393
428
398
399
395
391
457
419
386
381
424
387
423
409
408
394
377
404
398
429
401
403
423
377
387
410
397
386
429
392
394
428
396
458
482
395
403
373
398
453
422
406
374
389
390
385
403
410
377
404
373
402
376
377
410
405
381
391
381
397
430
374
404
400
392
386
389
441
385
392
415
376
393
445
424
381
427
391
411
409
415
391
388
383
379
374
393
374
416
419
397
422
398
393
580
444
379
377
392
385
393
467
402
379
351
410
360
503
406
357
365
377
382
372
383
374
400
402
367
381
381
450
377
379
367
388
382
411
409
384
366
374
438
388
390
385
376
391
383
384
371
363
381
409
410
391
408
364
372
393
380
373
379
391
385
407
379
397
408
381
380
409
375
372
382
373
378
385
374
469
382
364
414
398
380
405
363
378
394
374
508
379
395
399
392
396
410
382
389
390
375
367
389
388
371
392
388
438
446
393
382
410
382
382
383
405
370
398
387
399
394
390
376
418
397
405
374
393
370
391
412
366
419
385
385
368
410
390
368
402
391
391
396
381
373
395
393
403
383
396
409
378
369
384
392
385
420
391
389
500
412
377
389
404
410
393
388
385
408
400
373
405
372
428
395
372
394
406
415
389
423
385
384
394
400
377
418
385
405
373
419
363
377
390
382
422
402
389
434
380
412
405
382
424
387
423
381
381
381
387
377
391
407
471
399
395
434
401
376
371
388
390
383
412
434
390
373
381
380
418
570
427
389
380
414
382
401
400
371
400
416
386
407
398
376
389
375
394
418
393
418
395
397
377
414
398
412
410
387
389
389
397
373
389
396
369
418
420
385
412
411
396
392
397
385
408
410
537
410
433
435
392
395
419
398
385
388
410
386
404
409
559
393
389
405
430
395
421
427
395
403
402
417
396
424
414
394
376
394
404
388
389
408
401
399
415
411
387
379
392
421
398
444
401
418
404
400
382
398
409
426
406
421
404
412
434
388
392
407
405
393
391
389
421
417
388
396
431
413
474
392
430
406
404
384
407
396
445
410
400
402
400
433
382
402
384
423
404
400
406
404
385
400
391
440
453
410
384
401
404
433
388
422
464
393
396
410
409
426
421
400
435
396
398
400
426
410
413
430
506
405
429
420
384
402
404
393
395
408
429
449
406
411
431
400
429
409
460
409
392
411
458
400
396
407
400
444
444
431
413
391
394
413
421
433
430
394
411
407
444
408
413
401
396
413
396
432
435
374
419
435
421
390
452
431
393
416
498
424
412
419
427
430
433
425
401
414
435
403
468
401
402
410
419
404
406
429
403
418
444
542
405
452
413
432
399
456
399
424
429
448
428
411
445
405
407
418
399
394
458
407
422
418
454
437
449
397
426
427
436
442
406
412
424
423
431
435
457
424
404
406
433
437
443
458
406
419
417
458
418
415
463
408
419
436
390
449
415
402
433
439
422
435
406
428
417
432
425
430
424
434
456
395
413
438
406
465
405
441
413
405
424
422
425
427
451
422
475
438
411
390
432
424
394
409
433
426
399
457
438
401
423
481
436
419
401
435
416
448
397
395
427
421
435
437
406
407
413
426
453
406
446
394
412
454
410
411
471
398
415
412
439
435
419
426
428
419
407
439
468
435
412
410
407
403
398
422
437
413
408
409
477
478
403
409
464
429
442
415
440
412
413
422
445
433
433
405
427
428
414
409
405
439
423
412
452
412
428
502
425
430
415
448
447
415
400
418
431
528
410
459
417
414
415
425
436
432
434
410
457
445
415
441
461
405
408
419
416
440
428
433
420
405
438
432
459
419
413
408
442
467
397
409
445
398
437
437
424
424
490
417
417
428
428
430
410
417
426
439
442
425
426
443
420
406
457
416
464
437
418
536
449
410
421
457
426
419
404
424
453
441
418
418
435
449
424
435
423
433
417
430
476
422
402
437
450
404
416
463
414
456
424
424
406
439
413
408
425
450
411
434
450
405
449
419
417
479
395
439
430
443
426
446
435
409
432
433
423
411
429
458
419
453
419
433
406
457
442
436
419
411
416
449
424
413
410
424
469
438
438
402
420
441
444
430
425
432
413
461
463
421
447
409
445
411
413
441
464
416
418
435
459
436
439
416
430
433
448
451
463
446
456
470
434
440
417
463
430
433
413
428
395
456
432
428
462
457
452
435
466
429
452
411
421
453
421
414
447
445
425
478
412
417
429
429
445
469
415
434
407
437
457
465
435
498
432
462
428
434
421
443
419
474
414
415
495
430
420
429
452
408
442
415
431
446
456
421
430
457
436
435
443
415
420
438
485
419
444
454
408
459
438
422
424
587
415
407
422
564
419
522
410
456
455
447
436
403
413
439
431
451
442
461
470
427
449
456
437
429
437
418
471
455
436
490
407
437
445
484
435
431
435
440
419
430
445
457
462
438
416
464
462
438
575
451
457
422
435
445
464
427
443
436
446
436
444
438
430
459
456
444
492
428
428
447
475
441
436
440
429
453
410
472
451
449
436
413
458
412
419
473
435
445
478
448
446
491
457
455
458
443
447
464
429
423
423
462
458
453
475
444
434
496
442
449
438
449
469
480
504
448
462
451
418
453
440
464
473
442
424
437
451
462
445
462
511
451
460
442
451
476
461
449
463
459
677
431
465
439
445
432
430
481
437
440
439
443
505
441
443
438
456
464
440
443
521
437
476
449
470
452
443
463
458
440
450
457
432
480
463
554
446
473
509
445
424
452
450
471
457
509
436
492
458
476
445
487
451
468
453
460
482
460
564
457
456
448
430
484
448
456
466
462
435
451
491
438
479
445
464
497
446
456
451
495
543
481
490
483
464
464
446
480
454
457
448
461
484
463
496
436
485
452
472
497
473
450
462
457
466
482
492
487
556
456
440
442
510
446
462
469
453
451
591
474
558
469
489
444
499
493
472
450
507
494
487
481
465
486
524
513
517
477
473
496
475
476
465
441
507
451
606
478
482
495
485
479
437
444
446
490
452
449
454
467
440
436
427
498
466
449
431
483
436
471
478
486
470
479
459
462
466
496
457
469
436
467
468
466
519
469
458
492
489
441
468
437
477
475
488
513
674
493
472
450
478
486
482
442
456
438
458
480
439
464
462
501
472
442
460
448
461
450
548
460
462
451
476
468
435
445
445
477
465
456
452
449
472
460
461
463
446
448
425
460
472
475
492
491
435
447
474
450
470
449
436
444
450
436
442
456
491
442
473
491
413
440
450
461
429
490
474
427
437
449
442
454
505
435
434
501
440
467
454
507
438
454
459
453
454
458
447
464
484
430
506
507
462
442
448
455
468
459
446
478
490
465
474
483
446
440
486
451
440
500
454
442
493
449
478
449
468
449
429
460
469
464
463
412
425
480
469
448
430
469
450
459
484
437
452
455
454
445
457
517
442
466
477
447
491
450
452
469
464
476
439
467
448
469
460
476
470
466
452
521
462
454
473
440
435
442
442
517
464
455
464
466
470
442
455
450
442
444
496
476
495
632
546
469
443
434
450
446
467
448
456
461
481
459
486
468
471
449
433
438
544
436
460
445
423
454
435
419
428
452
465
436
440
433
447
473
429
480
438
463
450
437
422
472
419
490
438
429
473
416
433
425
442
434
421
433
438
419
457
445
471
462
438
444
437
422
427
466
434
470
439
432
455
419
450
417
445
447
428
424
429
474
418
482
454
416
433
488
437
436
449
403
433
470
414
446
442
434
423
454
435
428
415
427
463
434
502
429
462
466
480
429
437
448
448
422
450
426
476
425
431
416
420
448
464
469
422
406
458
456
503
473
438
485
457
439
447
420
430
432
465
487
431
416
447
442
409
437
436
420
438
468
427
494
453
468
460
456
443
456
445
428
435
437
492
425
434
430
433
429
439
471
440
429
421
440
526
449
566
465
418
472
429
443
439
440
483
437
455
446
445
456
442
434
438
440
512
439
435
489
462
494
480
428
440
460
432
439
466
455
418
473
446
443
445
430
480
439
448
438
436
437
497
501
460
449
456
440
434
446
448
485
437
452
464
454
429
441
440
453
439
435
453
455
430
502
505
458
497
444
438
455
435
445
555
473
436
428
477
423
449
463
443
445
475
440
484
460
469
488
452
455
468
444
447
457
461
487
442
432
473
429
451
445
460
443
442
450
487
437
458
445
497
434
467
446
475
433
440
438
455
465
436
417
455
447
481
450
449
455
459
435
442
449
448
480
488
434
461
478
446
437
550
440
462
444
476
439
426
446
457
435
475
457
442
453
459
503
473
488
447
446
493
477
449
434
452
466
512
468
446
450
486
478
449
465
440
441
459
486
439
442
513
435
497
445
445
474
459
441
451
508
458
414
444
483
451
452
444
458
427
453
465
480
481
489
493
488
438
432
466
448
468
443
447
462
456
470
468
462
448
445
457
461
444
453
512
503
437
461
414
459
453
491
628
455
506
456
451
509
436
442
457
468
455
462
489
423
533
458
473
478
463
466
486
477
446
479
444
458
444
476
499
449
463
436
481
489
490
434
472
501
455
518
467
474
483
925
446
445
446
456
565
436
464
470
447
487
457
442
417
441
469
490
472
485
455
471
469
437
460
461
476
455
466
442
445
522
470
457
467
436
447
469
458
467
475
433
443
507
427
456
489
496
453
467
465
489
461
454
466
445
476
438
464
461
458
474
497
445
466
496
490
442
476
467
488
436
452
427
464
471
438
448
461
445
447
468
484
453
481
468
491
474
458
467
467
469
500
495
454
463
446
476
541
456
461
464
471
499
444
467
465
518
473
510
490
450
464
468
493
445
446
456
457
452
470
449
451
482
454
457
493
488
495
449
503
451
501
469
584
463
511
478
484
470
471
561
483
483
450
530
471
489
491
480
455
467
550
639
492
507
479
444
468
468
513
499
441
477
458
486
465
498
456
464
494
474
452
473
479
488
455
523
487
491
487
464
480
478
487
465
469
460
451
485
499
484
480
518
468
478
581
478
557
507
515
527
513
598
465
485
517
465
485
483
484
511
518
496
491
493
480
494
515
548
465
717
497
506
480
481
562
502
471
477
464
467
466
547
496
506
479
486
507
477
491
511
533
492
531
494
479
476
515
521
468
506
497
482
479
496
480
512
476
487
464
494
490
474
549
475
531
501
473
513
474
533
458
485
498
468
470
497
462
526
486
490
444
470
485
510
521
487
520
514
495
492
509
459
484
492
535
480
487
501
540
508
494
494
482
486
514
467
506
493
524
522
507
522
537
484
474
496
484
470
524
476
521
478
501
477
495
527
506
553
515
488
563
493
590
528
482
507
485
483
515
507
523
558
537
488
512
502
502
532
571
525
485
510
502
496
453
474
558
498
527
482
482
503
538
460
484
488
476
527
496
528
532
502
520
523
528
503
496
527
495
497
484
491
477
542
495
506
495
498
509
537
484
517
530
492
523
512
524
606
508
546
522
509
493
559
497
522
535
508
552
507
517
537
536
559
567
541
525
543
526
549
546
547
554
594
539
555
527
581
517
529
553
548
612
553
587
555
599
571
548
576
565
589
585
576
615
627
683
584
618
666
626
619
646
632
653
707
704
698
694
719
760
792
868
1347
