99
99
143
122
135
136
138
147
162
155
167
156
156
158
158
161
160
162
162
164
164
166
168
167
167
169
168
170
168
170
170
170
174
173
181
175
177
177
175
177
178
178
176
179
177
179
178
193
180
179
180
192
184
185
184
186
184
186
188
192
189
191
189
192
193
195
194
199
199
198
198
198
208
210
203
202
204
216
205
208
210
208
209
220
210
212
212
214
213
215
216
219
216
218
222
221
219
224
224
233
223
224
225
227
230
226
230
227
231
231
230
235
232
232
236
233
235
237
235
258
239
238
239
240
249
240
242
244
251
243
243
242
242
245
243
244
248
255
247
258
247
249
248
251
249
250
251
252
251
255
258
252
253
264
255
254
254
257
265
257
257
255
258
257
257
257
257
257
260
259
268
259
260
272
260
276
262
260
258
261
264
263
273
263
262
262
265
266
263
276
264
264
266
265
266
278
267
267
268
268
270
268
268
280
269
269
270
283
271
281
268
272
273
272
281
271
271
274
273
273
272
274
274
274
274
285
277
276
275
275
274
276
279
277
275
278
277
279
277
282
278
279
278
280
290
283
279
278
280
280
282
284
281
282
283
280
285
285
283
286
282
283
295
287
287
284
295
283
296
283
286
286
285
285
285
285
289
287
286
287
289
289
291
291
291
291
293
289
294
295
294
291
295
294
307
298
297
306
297
297
297
298
299
303
298
309
304
302
304
301
316
316
304
314
303
308
308
306
304
308
306
304
309
304
308
307
308
305
322
308
319
308
307
309
306
310
308
311
308
312
310
314
309
310
311
313
311
325
312
317
312
316
312
314
326
315
315
316
313
313
318
317
319
320
319
318
320
325
320
322
324
320
320
326
324
334
322
322
324
333
326
326
327
325
326
329
336
328
324
328
326
340
335
332
328
330
340
341
330
336
330
328
331
329
333
336
335
335
331
336
337
339
341
338
337
337
339
337
359
340
338
339
350
339
348
340
337
337
339
336
341
343
341
340
343
343
350
344
342
345
345
341
343
358
344
347
353
350
345
360
353
353
353
361
347
350
362
348
351
346
362
353
352
359
353
355
354
353
353
360
353
353
356
360
369
361
358
356
357
356
363
360
360
359
358
358
357
357
362
359
365
360
359
358
361
364
360
361
373
361
363
367
360
361
362
366
370
381
364
368
376
369
365
366
372
374
368
366
363
368
371
368
367
370
370
365
369
369
369
366
368
371
376
374
371
373
371
371
375
377
373
381
374
375
372
375
381
378
377
380
393
378
380
378
379
378
381
384
403
386
381
389
382
382
381
391
383
388
378
387
381
390
379
381
385
388
395
381
397
389
386
395
393
390
401
392
392
389
391
391
390
399
396
393
395
392
399
418
389
396
390
395
406
401
393
398
394
392
397
399
405
398
396
395
398
396
413
400
400
397
403
402
408
399
399
398
401
397
414
403
402
400
399
419
401
418
414
402
412
400
400
414
402
407
403
403
403
404
419
407
412
404
414
411
408
421
407
410
415
410
429
413
410
411
408
407
405
428
414
413
409
412
411
424
417
409
413
410
417
411
417
415
423
412
416
410
421
421
412
419
429
420
414
421
418
420
416
423
417
430
419
423
426
421
424
429
426
420
445
420
424
422
428
425
423
423
428
427
438
433
446
425
422
426
428
425
424
429
439
438
427
443
431
432
437
437
430
440
435
435
435
434
453
442
437
437
439
444
435
447
445
444
432
439
441
438
438
443
440
442
448
448
447
451
441
448
440
468
443
440
441
443
455
440
439
444
452
445
448
444
451
445
445
454
441
456
452
449
446
448
444
451
444
449
453
451
450
451
447
460
