769
422
440
437
448
465
448
492
1199
509
501
494
459
470
480
479
477
1240
502
503
512
509
500
455
461
1165
491
496
506
478
495
523
498
514
1507
510
494
499
489
515
508
502
1164
525
506
474
475
510
525
516
502
1211
513
529
524
537
526
510
484
503
1186
517
506
519
506
532
534
550
1234
515
539
502
535
557
540
528
537
1266
535
550
538
534
548
561
542
1319
528
541
538
564
554
545
532
552
1245
552
532
574
571
587
572
552
1239
561
547
541
557
567
558
571
558
1357
546
561
578
547
551
555
573
1350
602
602
585
576
578
557
541
547
1272
582
551
552
578
580
582
604
1295
595
580
588
564
603
581
562
575
1360
599
598
595
595
652
621
581
1603
615
593
614
595
612
570
608
587
1385
580
596
607
605
594
618
621
1404
594
597
607
577
629
588
597
579
1327
597
580
599
576
573
584
573
587
1321
624
602
596
601
607
595
601
1291
589
600
583
601
623
606
619
602
1312
632
622
604
625
578
610
646
1277
615
581
597
615
615
612
606
587
1328
581
599
621
610
611
584
610
1276
607
587
621
579
568
604
609
582
1337
591
613
627
606
620
609
583
1320
593
737
602
611
623
595
604
613
1360
633
635
595
613
623
641
632
1413
596
602
607
610
610
596
622
603
2295
609
613
624
602
627
606
611
1261
606
641
626
623
605
635
640
650
1363
647
609
611
638
624
634
640
1330
647
618
627
636
651
625
660
625
1382
619
609
653
665
652
665
646
632
1364
634
654
621
623
639
624
624
1349
669
678
649
652
640
636
610
642
1321
622
642
649
649
618
654
636
1428
652
622
624
631
618
627
639
631
1384
685
658
678
653
669
655
645
1329
626
655
653
667
675
665
636
664
1408
639
698
666
639
649
654
656
1354
661
642
653
686
646
648
690
652
1344
670
679
716
671
645
647
662
1743
662
636
632
667
677
684
662
663
1465
650
654
661
656
653
661
674
1412
666
682
653
666
646
660
663
653
1438
666
672
695
684
679
669
671
1340
656
649
654
662
681
663
673
667
1403
680
667
663
677
686
669
650
659
1394
674
701
667
673
700
707
681
1384
713
676
680
698
666
688
661
694
1420
658
677
663
685
698
704
692
1457
695
665
665
698
691
710
670
675
1484
675
675
681
675
668
715
691
1391
689
719
685
706
707
683
676
699
1410
663
696
693
688
684
697
720
1454
682
676
695
714
689
691
694
692
9170
692
705
706
712
719
713
712
1428
713
709
705
670
685
695
691
693
1456
699
700
704
702
689
704
714
1487
681
698
718
743
687
679
725
700
1384
717
717
706
715
706
714
699
2171
737
696
711
713
699
708
725
705
1441
721
737
687
717
705
737
723
725
1376
701
732
716
725
743
737
718
1450
745
716
722
719
745
727
709
753
1469
741
736
710
718
711
726
742
1457
707
743
711
738
739
714
715
688
1428
698
725
735
725
736
736
731
1463
735
756
734
724
705
733
724
742
1497
740
746
744
745
742
711
696
1661
720
746
736
747
738
739
754
750
1496
749
734
742
732
736
736
743
1463
740
754
741
749
716
770
740
753
1495
759
747
761
751
760
735
731
1409
932
781
737
773
754
788
743
740
1413
742
745
738
726
728
746
733
1474
754
735
748
754
754
735
749
749
1396
775
740
748
735
762
787
760
786
1512
779
780
762
773
778
752
748
1533
750
802
764
743
765
749
760
796
1487
759
760
796
782
766
789
770
1540
875
788
775
796
771
786
772
748
1503
799
777
807
766
773
764
770
1483
804
786
790
797
782
759
819
767
1847
778
745
774
775
771
798
762
1483
783
803
780
788
780
775
775
813
1504
768
785
791
839
800
771
766
1540
789
758
781
788
799
761
797
763
1574
795
801
804
781
782
772
772
1525
803
780
772
785
777
814
